EESchema Schematic File Version 2
LIBS:CatchRobo-rescue
LIBS:power
LIBS:device
LIBS:transistors
LIBS:conn
LIBS:linear
LIBS:regul
LIBS:74xx
LIBS:cmos4000
LIBS:adc-dac
LIBS:memory
LIBS:xilinx
LIBS:microcontrollers
LIBS:dsp
LIBS:microchip
LIBS:analog_switches
LIBS:motorola
LIBS:texas
LIBS:intel
LIBS:audio
LIBS:interface
LIBS:digital-audio
LIBS:philips
LIBS:display
LIBS:cypress
LIBS:siliconi
LIBS:opto
LIBS:atmel
LIBS:contrib
LIBS:valves
LIBS:con_adns9800
LIBS:ft232rl
LIBS:GitSTM
LIBS:l3gd20_akizuki
LIBS:micromouse
LIBS:noritsuna
LIBS:rq6e050at
LIBS:stm32f405rgt6
LIBS:upa2753gr
LIBS:CatchRobo-cache
EELAYER 25 0
EELAYER END
$Descr A2 23386 16535
encoding utf-8
Sheet 1 1
Title ""
Date ""
Rev ""
Comp ""
Comment1 ""
Comment2 ""
Comment3 ""
Comment4 ""
$EndDescr
$Comp
L CONN_01X04 P29
U 1 1 5B1AB87D
P 22000 7950
F 0 "P29" H 22000 8200 50  0000 C CNN
F 1 "Pololu_Encoder" V 22100 7950 50  0000 C CNN
F 2 "Connectors_JST:JST_XH_B04B-XH-A_04x2.50mm_Straight" H 22000 7950 50  0001 C CNN
F 3 "" H 22000 7950 50  0000 C CNN
	1    22000 7950
	1    0    0    -1  
$EndComp
$Comp
L CONN_01X04 P30
U 1 1 5B1ABAC8
P 22000 8550
F 0 "P30" H 22000 8800 50  0000 C CNN
F 1 "Pololu_Encoder" V 22100 8550 50  0000 C CNN
F 2 "Connectors_JST:JST_XH_B04B-XH-A_04x2.50mm_Straight" H 22000 8550 50  0001 C CNN
F 3 "" H 22000 8550 50  0000 C CNN
	1    22000 8550
	1    0    0    -1  
$EndComp
$Comp
L CONN_01X04 P31
U 1 1 5B1ABB33
P 22000 9150
F 0 "P31" H 22000 9400 50  0000 C CNN
F 1 "Pololu_Encoder" V 22100 9150 50  0000 C CNN
F 2 "Connectors_JST:JST_XH_B04B-XH-A_04x2.50mm_Straight" H 22000 9150 50  0001 C CNN
F 3 "" H 22000 9150 50  0000 C CNN
	1    22000 9150
	1    0    0    -1  
$EndComp
$Comp
L CONN_01X04 P32
U 1 1 5B1ABE55
P 22000 9750
F 0 "P32" H 22000 10000 50  0000 C CNN
F 1 "REL18-100BP" V 22100 9750 50  0000 C CNN
F 2 "Connectors_JST:JST_XH_B04B-XH-A_04x2.50mm_Straight" H 22000 9750 50  0001 C CNN
F 3 "" H 22000 9750 50  0000 C CNN
	1    22000 9750
	1    0    0    -1  
$EndComp
$Comp
L FXMA108_Module U6
U 1 1 5B1B2E67
P 19350 8350
F 0 "U6" H 19350 9050 60  0000 C CNN
F 1 "FXMA108_Module" H 19400 8950 60  0000 C CNN
F 2 "MyKicadFP:FXMA108_Module" H 19350 8350 60  0001 C CNN
F 3 "" H 19350 8350 60  0000 C CNN
	1    19350 8350
	1    0    0    -1  
$EndComp
$Comp
L +5V #PWR01
U 1 1 5B1BA23E
P 20600 6950
F 0 "#PWR01" H 20600 6800 50  0001 C CNN
F 1 "+5V" H 20600 7090 50  0000 C CNN
F 2 "" H 20600 6950 50  0000 C CNN
F 3 "" H 20600 6950 50  0000 C CNN
	1    20600 6950
	1    0    0    -1  
$EndComp
$Comp
L GND #PWR02
U 1 1 5B1BBE16
P 20500 10100
F 0 "#PWR02" H 20500 9850 50  0001 C CNN
F 1 "GND" H 20500 9950 50  0000 C CNN
F 2 "" H 20500 10100 50  0000 C CNN
F 3 "" H 20500 10100 50  0000 C CNN
	1    20500 10100
	1    0    0    -1  
$EndComp
$Comp
L GND #PWR03
U 1 1 5B1C3D13
P 18700 8900
F 0 "#PWR03" H 18700 8650 50  0001 C CNN
F 1 "GND" H 18700 8750 50  0000 C CNN
F 2 "" H 18700 8900 50  0000 C CNN
F 3 "" H 18700 8900 50  0000 C CNN
	1    18700 8900
	1    0    0    -1  
$EndComp
$Comp
L GND #PWR04
U 1 1 5B1C574F
P 20000 8900
F 0 "#PWR04" H 20000 8650 50  0001 C CNN
F 1 "GND" H 20000 8750 50  0000 C CNN
F 2 "" H 20000 8900 50  0000 C CNN
F 3 "" H 20000 8900 50  0000 C CNN
	1    20000 8900
	1    0    0    -1  
$EndComp
NoConn ~ 19900 8600
NoConn ~ 19900 8700
NoConn ~ 18800 8600
NoConn ~ 18800 8700
$Comp
L +3.3V #PWR05
U 1 1 5B1C8123
P 18700 7200
F 0 "#PWR05" H 18700 7050 50  0001 C CNN
F 1 "+3.3V" H 18700 7340 50  0000 C CNN
F 2 "" H 18700 7200 50  0000 C CNN
F 3 "" H 18700 7200 50  0000 C CNN
	1    18700 7200
	1    0    0    -1  
$EndComp
Text GLabel 18300 8000 0    51   Output ~ 0
ENC_1_A
Text GLabel 18300 8100 0    51   Output ~ 0
ENC_1_B
Text GLabel 18300 8200 0    51   Output ~ 0
ENC_2_A
Text GLabel 18300 8300 0    51   Output ~ 0
ENC_2_B
Text GLabel 18300 8400 0    51   Output ~ 0
ENC_3_A
Text GLabel 18300 8500 0    51   Output ~ 0
ENC_3_B
Text GLabel 18300 8600 0    51   Output ~ 0
ENC_4_A
Text GLabel 18300 8700 0    51   Output ~ 0
ENC_4_B
$Comp
L +3.3V #PWR06
U 1 1 5B1D6B71
P 19350 9200
F 0 "#PWR06" H 19350 9050 50  0001 C CNN
F 1 "+3.3V" H 19350 9340 50  0000 C CNN
F 2 "" H 19350 9200 50  0000 C CNN
F 3 "" H 19350 9200 50  0000 C CNN
	1    19350 9200
	1    0    0    -1  
$EndComp
$Comp
L VNH5019_Board U2
U 1 1 5B31E699
P 8450 8500
F 0 "U2" H 8450 9100 60  0000 C CNN
F 1 "VNH5019_Board" H 8450 9000 60  0000 C CNN
F 2 "MyKicadFP:VNH5019_Board_angle" V 8450 8500 60  0001 C CNN
F 3 "" V 8450 8500 60  0000 C CNN
	1    8450 8500
	1    0    0    -1  
$EndComp
$Comp
L VNH5019_Board U3
U 1 1 5B31E758
P 8450 10500
F 0 "U3" H 8450 11100 60  0000 C CNN
F 1 "VNH5019_Board" H 8450 11000 60  0000 C CNN
F 2 "MyKicadFP:VNH5019_Board_angle" V 8450 10500 60  0001 C CNN
F 3 "" V 8450 10500 60  0000 C CNN
	1    8450 10500
	1    0    0    -1  
$EndComp
$Comp
L VNH5019_Board U5
U 1 1 5B31E90A
P 11100 10500
F 0 "U5" H 11100 11100 60  0000 C CNN
F 1 "VNH5019_Board" H 11100 11000 60  0000 C CNN
F 2 "MyKicadFP:VNH5019_Board_angle" V 11100 10500 60  0001 C CNN
F 3 "" V 11100 10500 60  0000 C CNN
	1    11100 10500
	1    0    0    -1  
$EndComp
$Comp
L VNH5019_Board U4
U 1 1 5B31E973
P 11100 8500
F 0 "U4" H 11100 9100 60  0000 C CNN
F 1 "VNH5019_Board" H 11100 9000 60  0000 C CNN
F 2 "MyKicadFP:VNH5019_Board_angle" V 11100 8500 60  0001 C CNN
F 3 "" V 11100 8500 60  0000 C CNN
	1    11100 8500
	1    0    0    -1  
$EndComp
$Comp
L CONN_01X02 P1
U 1 1 5B32023D
P 2300 8400
F 0 "P1" H 2300 8550 50  0000 C CNN
F 1 "DCMOTOR_PWR" V 2400 8400 50  0000 C CNN
F 2 "Connectors_JST:JST_VH_B2P-VH_2x3.96mm_Vertical" H 2300 8400 50  0001 C CNN
F 3 "" H 2300 8400 50  0000 C CNN
	1    2300 8400
	-1   0    0    -1  
$EndComp
$Comp
L R R11
U 1 1 5B1C91E7
P 19250 9550
F 0 "R11" V 19330 9550 50  0000 C CNN
F 1 "4.7k" V 19250 9550 50  0000 C CNN
F 2 "Resistors_SMD:R_0603_HandSoldering" V 19180 9550 50  0001 C CNN
F 3 "" H 19250 9550 50  0000 C CNN
	1    19250 9550
	1    0    0    -1  
$EndComp
$Comp
L R R12
U 1 1 5B1C98C9
P 19450 9550
F 0 "R12" V 19530 9550 50  0000 C CNN
F 1 "4.7k" V 19450 9550 50  0000 C CNN
F 2 "Resistors_SMD:R_0603_HandSoldering" V 19380 9550 50  0001 C CNN
F 3 "" H 19450 9550 50  0000 C CNN
	1    19450 9550
	1    0    0    1   
$EndComp
$Comp
L R R17
U 1 1 5B321AFB
P 20850 7400
F 0 "R17" V 20930 7400 50  0000 C CNN
F 1 "4.7k" V 20850 7400 50  0000 C CNN
F 2 "Resistors_SMD:R_0603_HandSoldering" V 20780 7400 50  0001 C CNN
F 3 "" H 20850 7400 50  0000 C CNN
	1    20850 7400
	1    0    0    1   
$EndComp
$Comp
L R R18
U 1 1 5B321E02
P 21000 7400
F 0 "R18" V 21080 7400 50  0000 C CNN
F 1 "4.7k" V 21000 7400 50  0000 C CNN
F 2 "Resistors_SMD:R_0603_HandSoldering" V 20930 7400 50  0001 C CNN
F 3 "" H 21000 7400 50  0000 C CNN
	1    21000 7400
	1    0    0    1   
$EndComp
$Comp
L R R19
U 1 1 5B3223B4
P 21150 7400
F 0 "R19" V 21230 7400 50  0000 C CNN
F 1 "4.7k" V 21150 7400 50  0000 C CNN
F 2 "Resistors_SMD:R_0603_HandSoldering" V 21080 7400 50  0001 C CNN
F 3 "" H 21150 7400 50  0000 C CNN
	1    21150 7400
	1    0    0    1   
$EndComp
$Comp
L R R20
U 1 1 5B32242A
P 21300 7400
F 0 "R20" V 21380 7400 50  0000 C CNN
F 1 "4.7k" V 21300 7400 50  0000 C CNN
F 2 "Resistors_SMD:R_0603_HandSoldering" V 21230 7400 50  0001 C CNN
F 3 "" H 21300 7400 50  0000 C CNN
	1    21300 7400
	1    0    0    1   
$EndComp
$Comp
L R R21
U 1 1 5B322526
P 21450 7400
F 0 "R21" V 21530 7400 50  0000 C CNN
F 1 "4.7k" V 21450 7400 50  0000 C CNN
F 2 "Resistors_SMD:R_0603_HandSoldering" V 21380 7400 50  0001 C CNN
F 3 "" H 21450 7400 50  0000 C CNN
	1    21450 7400
	1    0    0    1   
$EndComp
$Comp
L R R22
U 1 1 5B3225AA
P 21600 7400
F 0 "R22" V 21680 7400 50  0000 C CNN
F 1 "4.7k" V 21600 7400 50  0000 C CNN
F 2 "Resistors_SMD:R_0603_HandSoldering" V 21530 7400 50  0001 C CNN
F 3 "" H 21600 7400 50  0000 C CNN
	1    21600 7400
	1    0    0    1   
$EndComp
Text Notes 21800 7500 0    71   ~ 0
Pull Up \nif Needed
Text Notes 18200 6600 0    197  ~ 39
Encoder
$Comp
L TC4051B U7
U 1 1 5B332E17
P 10650 4100
F 0 "U7" H 10650 4700 60  0000 C CNN
F 1 "TC4051B" H 10650 4600 60  0000 C CNN
F 2 "MyKicadFP:DIP-16_W7.62mm_LongPads" H 10650 4100 60  0001 C CNN
F 3 "" H 10650 4100 60  0000 C CNN
	1    10650 4100
	1    0    0    -1  
$EndComp
$Comp
L +3.3V #PWR07
U 1 1 5B333A2C
P 13750 2100
F 0 "#PWR07" H 13750 1950 50  0001 C CNN
F 1 "+3.3V" H 13750 2240 50  0000 C CNN
F 2 "" H 13750 2100 50  0000 C CNN
F 3 "" H 13750 2100 50  0000 C CNN
	1    13750 2100
	1    0    0    -1  
$EndComp
$Comp
L GND #PWR08
U 1 1 5B333AF4
P 10100 4550
F 0 "#PWR08" H 10100 4300 50  0001 C CNN
F 1 "GND" H 10100 4400 50  0000 C CNN
F 2 "" H 10100 4550 50  0000 C CNN
F 3 "" H 10100 4550 50  0000 C CNN
	1    10100 4550
	1    0    0    -1  
$EndComp
Text GLabel 9600 3950 0    51   Output ~ 0
MP_IN
Text GLabel 11300 4350 2    51   Input ~ 0
MP_B
Text GLabel 11300 4250 2    51   Input ~ 0
MP_A
Text GLabel 11300 4450 2    51   Input ~ 0
MP_C
$Comp
L CONN_01X02 P40
U 1 1 5B3385FC
P 15700 4200
F 0 "P40" H 15700 4350 50  0000 C CNN
F 1 "MICRO_SW" V 15800 4200 50  0000 C CNN
F 2 "Connectors_JST:JST_XH_B02B-XH-A_02x2.50mm_Straight" H 15700 4200 50  0001 C CNN
F 3 "" H 15700 4200 50  0000 C CNN
	1    15700 4200
	1    0    0    -1  
$EndComp
$Comp
L CONN_01X02 P41
U 1 1 5B31E9D4
P 15700 4600
F 0 "P41" H 15700 4750 50  0000 C CNN
F 1 "MICRO_SW" V 15800 4600 50  0000 C CNN
F 2 "Connectors_JST:JST_XH_B02B-XH-A_02x2.50mm_Straight" H 15700 4600 50  0001 C CNN
F 3 "" H 15700 4600 50  0000 C CNN
	1    15700 4600
	1    0    0    -1  
$EndComp
$Comp
L CONN_01X02 P42
U 1 1 5B31EA2F
P 15700 5000
F 0 "P42" H 15700 5150 50  0000 C CNN
F 1 "MICRO_SW" V 15800 5000 50  0000 C CNN
F 2 "Connectors_JST:JST_XH_B02B-XH-A_02x2.50mm_Straight" H 15700 5000 50  0001 C CNN
F 3 "" H 15700 5000 50  0000 C CNN
	1    15700 5000
	1    0    0    -1  
$EndComp
$Comp
L CONN_01X02 P43
U 1 1 5B31EC17
P 15700 5400
F 0 "P43" H 15700 5550 50  0000 C CNN
F 1 "MICRO_SW" V 15800 5400 50  0000 C CNN
F 2 "Connectors_JST:JST_XH_B02B-XH-A_02x2.50mm_Straight" H 15700 5400 50  0001 C CNN
F 3 "" H 15700 5400 50  0000 C CNN
	1    15700 5400
	1    0    0    -1  
$EndComp
$Comp
L CONN_01X02 P36
U 1 1 5B31EF06
P 15700 2600
F 0 "P36" H 15700 2750 50  0000 C CNN
F 1 "MICRO_SW" V 15800 2600 50  0000 C CNN
F 2 "Connectors_JST:JST_XH_B02B-XH-A_02x2.50mm_Straight" H 15700 2600 50  0001 C CNN
F 3 "" H 15700 2600 50  0000 C CNN
	1    15700 2600
	1    0    0    -1  
$EndComp
$Comp
L CONN_01X02 P37
U 1 1 5B31F18E
P 15700 3000
F 0 "P37" H 15700 3150 50  0000 C CNN
F 1 "MICRO_SW" V 15800 3000 50  0000 C CNN
F 2 "Connectors_JST:JST_XH_B02B-XH-A_02x2.50mm_Straight" H 15700 3000 50  0001 C CNN
F 3 "" H 15700 3000 50  0000 C CNN
	1    15700 3000
	1    0    0    -1  
$EndComp
$Comp
L CONN_01X02 P38
U 1 1 5B31F267
P 15700 3400
F 0 "P38" H 15700 3550 50  0000 C CNN
F 1 "MICRO_SW" V 15800 3400 50  0000 C CNN
F 2 "Connectors_JST:JST_XH_B02B-XH-A_02x2.50mm_Straight" H 15700 3400 50  0001 C CNN
F 3 "" H 15700 3400 50  0000 C CNN
	1    15700 3400
	1    0    0    -1  
$EndComp
$Comp
L CONN_01X02 P39
U 1 1 5B31F347
P 15700 3800
F 0 "P39" H 15700 3950 50  0000 C CNN
F 1 "MICRO_SW" V 15800 3800 50  0000 C CNN
F 2 "Connectors_JST:JST_XH_B02B-XH-A_02x2.50mm_Straight" H 15700 3800 50  0001 C CNN
F 3 "" H 15700 3800 50  0000 C CNN
	1    15700 3800
	1    0    0    -1  
$EndComp
$Comp
L GND #PWR09
U 1 1 5B31F7E1
P 15400 5550
F 0 "#PWR09" H 15400 5300 50  0001 C CNN
F 1 "GND" H 15400 5400 50  0000 C CNN
F 2 "" H 15400 5550 50  0000 C CNN
F 3 "" H 15400 5550 50  0000 C CNN
	1    15400 5550
	1    0    0    -1  
$EndComp
$Comp
L R R33
U 1 1 5B32C12A
P 13750 2350
F 0 "R33" V 13830 2350 50  0000 C CNN
F 1 "4.7k" V 13750 2350 50  0000 C CNN
F 2 "Resistors_SMD:R_0603_HandSoldering" V 13680 2350 50  0001 C CNN
F 3 "" H 13750 2350 50  0000 C CNN
	1    13750 2350
	1    0    0    1   
$EndComp
$Comp
L R R34
U 1 1 5B33C59C
P 13900 2350
F 0 "R34" V 13980 2350 50  0000 C CNN
F 1 "4.7k" V 13900 2350 50  0000 C CNN
F 2 "Resistors_SMD:R_0603_HandSoldering" V 13830 2350 50  0001 C CNN
F 3 "" H 13900 2350 50  0000 C CNN
	1    13900 2350
	1    0    0    1   
$EndComp
$Comp
L R R35
U 1 1 5B33C649
P 14050 2350
F 0 "R35" V 14130 2350 50  0000 C CNN
F 1 "4.7k" V 14050 2350 50  0000 C CNN
F 2 "Resistors_SMD:R_0603_HandSoldering" V 13980 2350 50  0001 C CNN
F 3 "" H 14050 2350 50  0000 C CNN
	1    14050 2350
	1    0    0    1   
$EndComp
$Comp
L R R36
U 1 1 5B33C6BF
P 14200 2350
F 0 "R36" V 14280 2350 50  0000 C CNN
F 1 "4.7k" V 14200 2350 50  0000 C CNN
F 2 "Resistors_SMD:R_0603_HandSoldering" V 14130 2350 50  0001 C CNN
F 3 "" H 14200 2350 50  0000 C CNN
	1    14200 2350
	1    0    0    1   
$EndComp
$Comp
L R R37
U 1 1 5B33C734
P 14350 2350
F 0 "R37" V 14430 2350 50  0000 C CNN
F 1 "4.7k" V 14350 2350 50  0000 C CNN
F 2 "Resistors_SMD:R_0603_HandSoldering" V 14280 2350 50  0001 C CNN
F 3 "" H 14350 2350 50  0000 C CNN
	1    14350 2350
	1    0    0    1   
$EndComp
$Comp
L R R38
U 1 1 5B33C7AC
P 14500 2350
F 0 "R38" V 14580 2350 50  0000 C CNN
F 1 "4.7k" V 14500 2350 50  0000 C CNN
F 2 "Resistors_SMD:R_0603_HandSoldering" V 14430 2350 50  0001 C CNN
F 3 "" H 14500 2350 50  0000 C CNN
	1    14500 2350
	1    0    0    1   
$EndComp
$Comp
L R R39
U 1 1 5B33C827
P 14650 2350
F 0 "R39" V 14730 2350 50  0000 C CNN
F 1 "4.7k" V 14650 2350 50  0000 C CNN
F 2 "Resistors_SMD:R_0603_HandSoldering" V 14580 2350 50  0001 C CNN
F 3 "" H 14650 2350 50  0000 C CNN
	1    14650 2350
	1    0    0    1   
$EndComp
$Comp
L R R40
U 1 1 5B33C8A5
P 14800 2350
F 0 "R40" V 14880 2350 50  0000 C CNN
F 1 "4.7k" V 14800 2350 50  0000 C CNN
F 2 "Resistors_SMD:R_0603_HandSoldering" V 14730 2350 50  0001 C CNN
F 3 "" H 14800 2350 50  0000 C CNN
	1    14800 2350
	1    0    0    1   
$EndComp
Text Notes 10050 1600 0    197  ~ 39
Micro Switch
$Comp
L GND #PWR010
U 1 1 5B3491BF
P 7900 11000
F 0 "#PWR010" H 7900 10750 50  0001 C CNN
F 1 "GND" H 7900 10850 50  0000 C CNN
F 2 "" H 7900 11000 50  0000 C CNN
F 3 "" H 7900 11000 50  0000 C CNN
	1    7900 11000
	1    0    0    -1  
$EndComp
$Comp
L GND #PWR011
U 1 1 5B34BBB9
P 9000 11000
F 0 "#PWR011" H 9000 10750 50  0001 C CNN
F 1 "GND" H 9000 10850 50  0000 C CNN
F 2 "" H 9000 11000 50  0000 C CNN
F 3 "" H 9000 11000 50  0000 C CNN
	1    9000 11000
	1    0    0    -1  
$EndComp
$Comp
L GND #PWR012
U 1 1 5B34BFD0
P 9000 9000
F 0 "#PWR012" H 9000 8750 50  0001 C CNN
F 1 "GND" H 9000 8850 50  0000 C CNN
F 2 "" H 9000 9000 50  0000 C CNN
F 3 "" H 9000 9000 50  0000 C CNN
	1    9000 9000
	1    0    0    -1  
$EndComp
$Comp
L GND #PWR013
U 1 1 5B34D6BB
P 10550 9000
F 0 "#PWR013" H 10550 8750 50  0001 C CNN
F 1 "GND" H 10550 8850 50  0000 C CNN
F 2 "" H 10550 9000 50  0000 C CNN
F 3 "" H 10550 9000 50  0000 C CNN
	1    10550 9000
	1    0    0    -1  
$EndComp
$Comp
L GND #PWR014
U 1 1 5B34E0FC
P 11650 9000
F 0 "#PWR014" H 11650 8750 50  0001 C CNN
F 1 "GND" H 11650 8850 50  0000 C CNN
F 2 "" H 11650 9000 50  0000 C CNN
F 3 "" H 11650 9000 50  0000 C CNN
	1    11650 9000
	1    0    0    -1  
$EndComp
$Comp
L GND #PWR015
U 1 1 5B34EB77
P 10550 11000
F 0 "#PWR015" H 10550 10750 50  0001 C CNN
F 1 "GND" H 10550 10850 50  0000 C CNN
F 2 "" H 10550 11000 50  0000 C CNN
F 3 "" H 10550 11000 50  0000 C CNN
	1    10550 11000
	1    0    0    -1  
$EndComp
$Comp
L GND #PWR016
U 1 1 5B34F2CE
P 11650 11000
F 0 "#PWR016" H 11650 10750 50  0001 C CNN
F 1 "GND" H 11650 10850 50  0000 C CNN
F 2 "" H 11650 11000 50  0000 C CNN
F 3 "" H 11650 11000 50  0000 C CNN
	1    11650 11000
	1    0    0    -1  
$EndComp
Text GLabel 7700 8350 0    51   Input ~ 0
MD1_INA
Text GLabel 7700 8650 0    51   Input ~ 0
MD1_INB
Text GLabel 7700 8200 0    51   Input ~ 0
MD1_PWM
Text GLabel 9200 8200 2    51   Input ~ 0
MD1_PWM
Text GLabel 9200 8350 2    51   Input ~ 0
MD1_INA
Text GLabel 9200 8650 2    51   Input ~ 0
MD1_INB
NoConn ~ 8000 8800
NoConn ~ 8900 8800
Text GLabel 10350 8200 0    51   Input ~ 0
MD2_PWM
Text GLabel 10350 8350 0    51   Input ~ 0
MD2_INA
Text GLabel 10350 8650 0    51   Input ~ 0
MD2_INB
Text GLabel 11850 8200 2    51   Input ~ 0
MD2_PWM
Text GLabel 11850 8350 2    51   Input ~ 0
MD2_INA
Text GLabel 11850 8650 2    51   Input ~ 0
MD2_INB
NoConn ~ 11550 8800
NoConn ~ 10650 8800
Text GLabel 7700 10350 0    51   Input ~ 0
MD3_INA
Text GLabel 7700 10650 0    51   Input ~ 0
MD3_INB
Text GLabel 7700 10200 0    51   Input ~ 0
MD3_PWM
Text GLabel 9200 10200 2    51   Input ~ 0
MD3_PWM
Text GLabel 9200 10350 2    51   Input ~ 0
MD3_INA
Text GLabel 9200 10650 2    51   Input ~ 0
MD3_INB
NoConn ~ 8900 10800
NoConn ~ 8000 10800
Text GLabel 10350 10350 0    51   Input ~ 0
MD4_INA
Text GLabel 10350 10650 0    51   Input ~ 0
MD4_INB
Text GLabel 10350 10200 0    51   Input ~ 0
MD4_PWM
Text GLabel 11850 10350 2    51   Input ~ 0
MD4_INA
Text GLabel 11850 10650 2    51   Input ~ 0
MD4_INB
Text GLabel 11850 10200 2    51   Input ~ 0
MD4_PWM
$Comp
L CONN_01X02 P12
U 1 1 5B33ADEB
P 8600 9250
F 0 "P12" H 8600 9400 50  0000 C CNN
F 1 "MD_SUPPLY" V 8700 9250 50  0000 C CNN
F 2 "Connectors_JST:JST_VH_B2P-VH_2x3.96mm_Vertical" H 8600 9250 50  0001 C CNN
F 3 "" H 8600 9250 50  0000 C CNN
	1    8600 9250
	1    0    0    -1  
$EndComp
$Comp
L CONN_01X02 P13
U 1 1 5B33C3D1
P 8600 11250
F 0 "P13" H 8600 11400 50  0000 C CNN
F 1 "MD_SUPPLY" V 8700 11250 50  0000 C CNN
F 2 "Connectors_JST:JST_VH_B2P-VH_2x3.96mm_Vertical" H 8600 11250 50  0001 C CNN
F 3 "" H 8600 11250 50  0000 C CNN
	1    8600 11250
	1    0    0    -1  
$EndComp
$Comp
L CONN_01X02 P17
U 1 1 5B33C45C
P 11250 9250
F 0 "P17" H 11250 9400 50  0000 C CNN
F 1 "MD_SUPPLY" V 11350 9250 50  0000 C CNN
F 2 "Connectors_JST:JST_VH_B2P-VH_2x3.96mm_Vertical" H 11250 9250 50  0001 C CNN
F 3 "" H 11250 9250 50  0000 C CNN
	1    11250 9250
	1    0    0    -1  
$EndComp
$Comp
L CONN_01X02 P18
U 1 1 5B33E074
P 11250 11250
F 0 "P18" H 11250 11400 50  0000 C CNN
F 1 "MD_SUPPLY" V 11350 11250 50  0000 C CNN
F 2 "Connectors_JST:JST_VH_B2P-VH_2x3.96mm_Vertical" H 11250 11250 50  0001 C CNN
F 3 "" H 11250 11250 50  0000 C CNN
	1    11250 11250
	1    0    0    -1  
$EndComp
$Comp
L +3.3V #PWR017
U 1 1 5B35C5CB
P 11200 3350
F 0 "#PWR017" H 11200 3200 50  0001 C CNN
F 1 "+3.3V" H 11200 3490 50  0000 C CNN
F 2 "" H 11200 3350 50  0000 C CNN
F 3 "" H 11200 3350 50  0000 C CNN
	1    11200 3350
	1    0    0    -1  
$EndComp
$Comp
L VR VR1
U 1 1 5B329B2F
P 2900 8700
F 0 "VR1" V 2960 8654 50  0000 C TNN
F 1 "VR" V 2900 8700 50  0000 C CNN
F 2 "MyKicadFP:Varistor_D05" H 2900 8700 50  0001 C CNN
F 3 "" H 2900 8700 50  0000 C CNN
	1    2900 8700
	-1   0    0    1   
$EndComp
$Comp
L +24V #PWR018
U 1 1 5B34C3B1
P 3750 8250
F 0 "#PWR018" H 3750 8100 50  0001 C CNN
F 1 "+24V" H 3750 8390 50  0000 C CNN
F 2 "" H 3750 8250 50  0000 C CNN
F 3 "" H 3750 8250 50  0000 C CNN
	1    3750 8250
	1    0    0    -1  
$EndComp
$Comp
L GNDA #PWR019
U 1 1 5B354117
P 2600 9150
F 0 "#PWR019" H 2600 8900 50  0001 C CNN
F 1 "GNDA" H 2600 9000 50  0000 C CNN
F 2 "" H 2600 9150 50  0000 C CNN
F 3 "" H 2600 9150 50  0000 C CNN
	1    2600 9150
	1    0    0    -1  
$EndComp
$Comp
L R R3
U 1 1 5B3560C4
P 3150 8600
F 0 "R3" V 3230 8600 50  0000 C CNN
F 1 "100k" V 3150 8600 50  0000 C CNN
F 2 "Resistors_SMD:R_0603_HandSoldering" V 3080 8600 50  0001 C CNN
F 3 "" H 3150 8600 50  0000 C CNN
	1    3150 8600
	1    0    0    -1  
$EndComp
$Comp
L +24V #PWR020
U 1 1 5B35F0FE
P 8300 9150
F 0 "#PWR020" H 8300 9000 50  0001 C CNN
F 1 "+24V" H 8300 9290 50  0000 C CNN
F 2 "" H 8300 9150 50  0000 C CNN
F 3 "" H 8300 9150 50  0000 C CNN
	1    8300 9150
	1    0    0    -1  
$EndComp
$Comp
L GNDA #PWR021
U 1 1 5B361BE4
P 8300 9350
F 0 "#PWR021" H 8300 9100 50  0001 C CNN
F 1 "GNDA" H 8300 9200 50  0000 C CNN
F 2 "" H 8300 9350 50  0000 C CNN
F 3 "" H 8300 9350 50  0000 C CNN
	1    8300 9350
	1    0    0    -1  
$EndComp
$Comp
L +24V #PWR022
U 1 1 5B362AD8
P 10950 9150
F 0 "#PWR022" H 10950 9000 50  0001 C CNN
F 1 "+24V" H 10950 9290 50  0000 C CNN
F 2 "" H 10950 9150 50  0000 C CNN
F 3 "" H 10950 9150 50  0000 C CNN
	1    10950 9150
	1    0    0    -1  
$EndComp
$Comp
L GNDA #PWR023
U 1 1 5B3635BB
P 10950 9350
F 0 "#PWR023" H 10950 9100 50  0001 C CNN
F 1 "GNDA" H 10950 9200 50  0000 C CNN
F 2 "" H 10950 9350 50  0000 C CNN
F 3 "" H 10950 9350 50  0000 C CNN
	1    10950 9350
	1    0    0    -1  
$EndComp
$Comp
L +24V #PWR024
U 1 1 5B364252
P 8300 11150
F 0 "#PWR024" H 8300 11000 50  0001 C CNN
F 1 "+24V" H 8300 11290 50  0000 C CNN
F 2 "" H 8300 11150 50  0000 C CNN
F 3 "" H 8300 11150 50  0000 C CNN
	1    8300 11150
	1    0    0    -1  
$EndComp
$Comp
L GNDA #PWR025
U 1 1 5B364893
P 8300 11350
F 0 "#PWR025" H 8300 11100 50  0001 C CNN
F 1 "GNDA" H 8300 11200 50  0000 C CNN
F 2 "" H 8300 11350 50  0000 C CNN
F 3 "" H 8300 11350 50  0000 C CNN
	1    8300 11350
	1    0    0    -1  
$EndComp
$Comp
L GNDA #PWR026
U 1 1 5B3654B4
P 10950 11350
F 0 "#PWR026" H 10950 11100 50  0001 C CNN
F 1 "GNDA" H 10950 11200 50  0000 C CNN
F 2 "" H 10950 11350 50  0000 C CNN
F 3 "" H 10950 11350 50  0000 C CNN
	1    10950 11350
	1    0    0    -1  
$EndComp
$Comp
L +24V #PWR027
U 1 1 5B3665E5
P 10950 11150
F 0 "#PWR027" H 10950 11000 50  0001 C CNN
F 1 "+24V" H 10950 11290 50  0000 C CNN
F 2 "" H 10950 11150 50  0000 C CNN
F 3 "" H 10950 11150 50  0000 C CNN
	1    10950 11150
	1    0    0    -1  
$EndComp
$Comp
L +24V #PWR028
U 1 1 5B374A20
P 5500 12700
F 0 "#PWR028" H 5500 12550 50  0001 C CNN
F 1 "+24V" H 5500 12840 50  0000 C CNN
F 2 "" H 5500 12700 50  0000 C CNN
F 3 "" H 5500 12700 50  0000 C CNN
	1    5500 12700
	1    0    0    -1  
$EndComp
$Comp
L CONN_01X02 P6
U 1 1 5B37743B
P 5800 12950
F 0 "P6" H 5800 13100 50  0000 C CNN
F 1 "MOTOR" V 5900 12950 50  0000 C CNN
F 2 "Connectors_JST:JST_XH_B02B-XH-A_02x2.50mm_Straight" H 5800 12950 50  0001 C CNN
F 3 "" H 5800 12950 50  0000 C CNN
	1    5800 12950
	1    0    0    -1  
$EndComp
Text GLabel 2300 13400 0    51   Input ~ 0
PWM_VACUUM_SERVO_1
$Comp
L CONN_01X02 P2
U 1 1 5B386270
P 2300 10250
F 0 "P2" H 2300 10400 50  0000 C CNN
F 1 "SERVO_PWR" V 2400 10250 50  0000 C CNN
F 2 "Connectors_JST:JST_VH_B2P-VH_2x3.96mm_Vertical" H 2300 10250 50  0001 C CNN
F 3 "" H 2300 10250 50  0000 C CNN
	1    2300 10250
	-1   0    0    -1  
$EndComp
$Comp
L VR VR2
U 1 1 5B386276
P 2900 10550
F 0 "VR2" V 2960 10504 50  0000 C TNN
F 1 "VR" V 2900 10550 50  0000 C CNN
F 2 "MyKicadFP:Varistor_D05" H 2900 10550 50  0001 C CNN
F 3 "" H 2900 10550 50  0000 C CNN
	1    2900 10550
	-1   0    0    1   
$EndComp
$Comp
L R R4
U 1 1 5B38628E
P 3150 10450
F 0 "R4" V 3230 10450 50  0000 C CNN
F 1 "100k" V 3150 10450 50  0000 C CNN
F 2 "Resistors_SMD:R_0603_HandSoldering" V 3080 10450 50  0001 C CNN
F 3 "" H 3150 10450 50  0000 C CNN
	1    3150 10450
	1    0    0    -1  
$EndComp
$Comp
L +6V #PWR029
U 1 1 5B38A4AF
P 3750 10100
F 0 "#PWR029" H 3750 9950 50  0001 C CNN
F 1 "+6V" H 3750 10240 50  0000 C CNN
F 2 "" H 3750 10100 50  0000 C CNN
F 3 "" H 3750 10100 50  0000 C CNN
	1    3750 10100
	1    0    0    -1  
$EndComp
$Comp
L CONN_01X02 P21
U 1 1 5B33A73A
P 2550 3900
F 0 "P21" H 2550 4050 50  0000 C CNN
F 1 "DIGITAL_PWR" V 2650 3900 50  0000 C CNN
F 2 "Connectors_JST:JST_VH_B2P-VH_2x3.96mm_Vertical" H 2550 3900 50  0001 C CNN
F 3 "" H 2550 3900 50  0000 C CNN
	1    2550 3900
	-1   0    0    -1  
$EndComp
$Comp
L VR VR3
U 1 1 5B33A740
P 3150 4200
F 0 "VR3" V 3210 4154 50  0000 C TNN
F 1 "VR" V 3150 4200 50  0000 C CNN
F 2 "MyKicadFP:Varistor_D05" H 3150 4200 50  0001 C CNN
F 3 "" H 3150 4200 50  0000 C CNN
	1    3150 4200
	-1   0    0    1   
$EndComp
$Comp
L R R9
U 1 1 5B33A758
P 3400 4150
F 0 "R9" V 3480 4150 50  0000 C CNN
F 1 "100k" V 3400 4150 50  0000 C CNN
F 2 "Resistors_SMD:R_0603_HandSoldering" V 3330 4150 50  0001 C CNN
F 3 "" H 3400 4150 50  0000 C CNN
	1    3400 4150
	1    0    0    -1  
$EndComp
$Comp
L GND #PWR030
U 1 1 5B340618
P 2850 4650
F 0 "#PWR030" H 2850 4400 50  0001 C CNN
F 1 "GND" H 2850 4500 50  0000 C CNN
F 2 "" H 2850 4650 50  0000 C CNN
F 3 "" H 2850 4650 50  0000 C CNN
	1    2850 4650
	1    0    0    -1  
$EndComp
$Comp
L +BATT #PWR031
U 1 1 5B341D6E
P 5500 3750
F 0 "#PWR031" H 5500 3600 50  0001 C CNN
F 1 "+BATT" H 5500 3890 50  0000 C CNN
F 2 "" H 5500 3750 50  0000 C CNN
F 3 "" H 5500 3750 50  0000 C CNN
	1    5500 3750
	1    0    0    -1  
$EndComp
$Comp
L R R1
U 1 1 5B34E54E
P 4950 13400
F 0 "R1" V 5030 13400 50  0000 C CNN
F 1 "10" V 4950 13400 50  0000 C CNN
F 2 "Resistors_SMD:R_0603_HandSoldering" V 4880 13400 50  0001 C CNN
F 3 "" H 4950 13400 50  0000 C CNN
	1    4950 13400
	0    -1   -1   0   
$EndComp
$Comp
L R R2
U 1 1 5B34FF91
P 5150 13600
F 0 "R2" V 5230 13600 50  0000 C CNN
F 1 "100k" V 5150 13600 50  0000 C CNN
F 2 "Resistors_SMD:R_0603_HandSoldering" V 5080 13600 50  0001 C CNN
F 3 "" H 5150 13600 50  0000 C CNN
	1    5150 13600
	1    0    0    -1  
$EndComp
$Comp
L GND #PWR032
U 1 1 5B34C807
P 7900 9000
F 0 "#PWR032" H 7900 8750 50  0001 C CNN
F 1 "GND" H 7900 8850 50  0000 C CNN
F 2 "" H 7900 9000 50  0000 C CNN
F 3 "" H 7900 9000 50  0000 C CNN
	1    7900 9000
	1    0    0    -1  
$EndComp
$Comp
L GNDA #PWR033
U 1 1 5B37A629
P 5500 14000
F 0 "#PWR033" H 5500 13750 50  0001 C CNN
F 1 "GNDA" H 5500 13850 50  0000 C CNN
F 2 "" H 5500 14000 50  0000 C CNN
F 3 "" H 5500 14000 50  0000 C CNN
	1    5500 14000
	1    0    0    -1  
$EndComp
$Comp
L CONN_01X03 P33
U 1 1 5B33A205
P 19850 12300
F 0 "P33" H 19850 12500 50  0000 C CNN
F 1 "DS2-1" V 19950 12300 50  0000 C CNN
F 2 "Connectors_JST:JST_XH_B03B-XH-A_03x2.50mm_Straight" H 19850 12300 50  0001 C CNN
F 3 "" H 19850 12300 50  0000 C CNN
	1    19850 12300
	1    0    0    -1  
$EndComp
$Comp
L CONN_01X03 P34
U 1 1 5B33B3F3
P 19850 13000
F 0 "P34" H 19850 13200 50  0000 C CNN
F 1 "DS2-2" V 19950 13000 50  0000 C CNN
F 2 "Connectors_JST:JST_XH_B03B-XH-A_03x2.50mm_Straight" H 19850 13000 50  0001 C CNN
F 3 "" H 19850 13000 50  0000 C CNN
	1    19850 13000
	1    0    0    -1  
$EndComp
$Comp
L CONN_01X03 P35
U 1 1 5B33B51F
P 19850 13700
F 0 "P35" H 19850 13900 50  0000 C CNN
F 1 "DS2-3" V 19950 13700 50  0000 C CNN
F 2 "Connectors_JST:JST_XH_B03B-XH-A_03x2.50mm_Straight" H 19850 13700 50  0001 C CNN
F 3 "" H 19850 13700 50  0000 C CNN
	1    19850 13700
	1    0    0    -1  
$EndComp
Text Notes 18550 11550 0    197  ~ 39
DUAL SHOCK2 / SPI
Text GLabel 13850 8650 0    51   Input ~ 0
SERVO_SIG_1
$Comp
L CONN_01X03 P23
U 1 1 5B388828
P 14250 8750
F 0 "P23" H 14250 8950 50  0000 C CNN
F 1 "SERVO" V 14350 8750 50  0000 C CNN
F 2 "Connectors_JST:JST_XH_B03B-XH-A_03x2.50mm_Straight" H 14250 8750 50  0001 C CNN
F 3 "" H 14250 8750 50  0000 C CNN
	1    14250 8750
	1    0    0    -1  
$EndComp
$Comp
L +6V #PWR034
U 1 1 5B38A754
P 13950 8550
F 0 "#PWR034" H 13950 8400 50  0001 C CNN
F 1 "+6V" H 13950 8690 50  0000 C CNN
F 2 "" H 13950 8550 50  0000 C CNN
F 3 "" H 13950 8550 50  0000 C CNN
	1    13950 8550
	1    0    0    -1  
$EndComp
Text GLabel 13850 9600 0    51   Input ~ 0
SERVO_SIG_2
$Comp
L CONN_01X03 P24
U 1 1 5B397606
P 14250 9700
F 0 "P24" H 14250 9900 50  0000 C CNN
F 1 "SERVO" V 14350 9700 50  0000 C CNN
F 2 "Connectors_JST:JST_XH_B03B-XH-A_03x2.50mm_Straight" H 14250 9700 50  0001 C CNN
F 3 "" H 14250 9700 50  0000 C CNN
	1    14250 9700
	1    0    0    -1  
$EndComp
$Comp
L +6V #PWR035
U 1 1 5B39760D
P 13950 9500
F 0 "#PWR035" H 13950 9350 50  0001 C CNN
F 1 "+6V" H 13950 9640 50  0000 C CNN
F 2 "" H 13950 9500 50  0000 C CNN
F 3 "" H 13950 9500 50  0000 C CNN
	1    13950 9500
	1    0    0    -1  
$EndComp
Text GLabel 13850 10550 0    51   Input ~ 0
SERVO_SIG_3
$Comp
L CONN_01X03 P25
U 1 1 5B3988A9
P 14250 10650
F 0 "P25" H 14250 10850 50  0000 C CNN
F 1 "SERVO" V 14350 10650 50  0000 C CNN
F 2 "Connectors_JST:JST_XH_B03B-XH-A_03x2.50mm_Straight" H 14250 10650 50  0001 C CNN
F 3 "" H 14250 10650 50  0000 C CNN
	1    14250 10650
	1    0    0    -1  
$EndComp
$Comp
L +6V #PWR036
U 1 1 5B3988B0
P 13950 10450
F 0 "#PWR036" H 13950 10300 50  0001 C CNN
F 1 "+6V" H 13950 10590 50  0000 C CNN
F 2 "" H 13950 10450 50  0000 C CNN
F 3 "" H 13950 10450 50  0000 C CNN
	1    13950 10450
	1    0    0    -1  
$EndComp
Text Notes 2050 7350 0    197  ~ 39
DC Motor / Vacuum / Servo Motor
$Comp
L GND #PWR037
U 1 1 5B3D0090
P 2600 11000
F 0 "#PWR037" H 2600 10750 50  0001 C CNN
F 1 "GND" H 2600 10850 50  0000 C CNN
F 2 "" H 2600 11000 50  0000 C CNN
F 3 "" H 2600 11000 50  0000 C CNN
	1    2600 11000
	1    0    0    -1  
$EndComp
$Comp
L CP1 C1
U 1 1 5B4091CD
P 3750 8700
F 0 "C1" H 3775 8800 50  0000 L CNN
F 1 "470u" H 3775 8600 50  0000 L CNN
F 2 "Capacitors_ThroughHole:CP_Radial_D10.0mm_P5.00mm" H 3750 8700 50  0001 C CNN
F 3 "" H 3750 8700 50  0000 C CNN
	1    3750 8700
	1    0    0    -1  
$EndComp
$Comp
L CP1 C2
U 1 1 5B410EC0
P 3750 10550
F 0 "C2" H 3775 10650 50  0000 L CNN
F 1 "470u" H 3775 10450 50  0000 L CNN
F 2 "Capacitors_ThroughHole:CP_Radial_D10.0mm_P5.00mm" H 3750 10550 50  0001 C CNN
F 3 "" H 3750 10550 50  0000 C CNN
	1    3750 10550
	1    0    0    -1  
$EndComp
Text GLabel 19350 13600 0    51   Input ~ 0
SPI_SCK
Text GLabel 19350 12300 0    51   Input ~ 0
SPI_MOSI
Text GLabel 19350 12200 0    51   Output ~ 0
SPI_MISO
Text GLabel 19350 13100 0    51   Input ~ 0
SPI_CS1
NoConn ~ 19650 12400
$Comp
L GND #PWR038
U 1 1 5B4A0580
P 19400 12750
F 0 "#PWR038" H 19400 12500 50  0001 C CNN
F 1 "GND" H 19400 12600 50  0000 C CNN
F 2 "" H 19400 12750 50  0000 C CNN
F 3 "" H 19400 12750 50  0000 C CNN
	1    19400 12750
	1    0    0    -1  
$EndComp
$Comp
L +3.3V #PWR039
U 1 1 5B4A4F12
P 19200 12700
F 0 "#PWR039" H 19200 12550 50  0001 C CNN
F 1 "+3.3V" H 19200 12840 50  0000 C CNN
F 2 "" H 19200 12700 50  0000 C CNN
F 3 "" H 19200 12700 50  0000 C CNN
	1    19200 12700
	1    0    0    -1  
$EndComp
NoConn ~ 19650 13700
NoConn ~ 19650 13800
$Comp
L CONN_01X03 P44
U 1 1 5B37361E
P 20900 12300
F 0 "P44" H 20900 12500 50  0000 C CNN
F 1 "SPI-1" V 21000 12300 50  0000 C CNN
F 2 "Connectors_JST:JST_XH_B03B-XH-A_03x2.50mm_Straight" H 20900 12300 50  0001 C CNN
F 3 "" H 20900 12300 50  0000 C CNN
	1    20900 12300
	1    0    0    -1  
$EndComp
$Comp
L CONN_01X03 P45
U 1 1 5B373D7F
P 20900 13000
F 0 "P45" H 20900 13200 50  0000 C CNN
F 1 "SPI-2" V 21000 13000 50  0000 C CNN
F 2 "Connectors_JST:JST_XH_B03B-XH-A_03x2.50mm_Straight" H 20900 13000 50  0001 C CNN
F 3 "" H 20900 13000 50  0000 C CNN
	1    20900 13000
	1    0    0    -1  
$EndComp
$Comp
L CONN_01X03 P46
U 1 1 5B3740D1
P 20900 13700
F 0 "P46" H 20900 13900 50  0000 C CNN
F 1 "SPI-3" V 21000 13700 50  0000 C CNN
F 2 "Connectors_JST:JST_XH_B03B-XH-A_03x2.50mm_Straight" H 20900 13700 50  0001 C CNN
F 3 "" H 20900 13700 50  0000 C CNN
	1    20900 13700
	1    0    0    -1  
$EndComp
$Comp
L +3.3V #PWR040
U 1 1 5B380122
P 20200 12800
F 0 "#PWR040" H 20200 12650 50  0001 C CNN
F 1 "+3.3V" H 20200 12940 50  0000 C CNN
F 2 "" H 20200 12800 50  0000 C CNN
F 3 "" H 20200 12800 50  0000 C CNN
	1    20200 12800
	1    0    0    -1  
$EndComp
$Comp
L GND #PWR041
U 1 1 5B380604
P 20400 12750
F 0 "#PWR041" H 20400 12500 50  0001 C CNN
F 1 "GND" H 20400 12600 50  0000 C CNN
F 2 "" H 20400 12750 50  0000 C CNN
F 3 "" H 20400 12750 50  0000 C CNN
	1    20400 12750
	1    0    0    -1  
$EndComp
NoConn ~ 20700 12400
NoConn ~ 20700 13700
NoConn ~ 20700 13800
Text GLabel 20600 13100 0    51   Input ~ 0
SPI_CS2
$Comp
L R R10
U 1 1 5B40D4D3
P 4900 4100
F 0 "R10" V 4980 4100 50  0000 C CNN
F 1 "100k" V 4900 4100 50  0000 C CNN
F 2 "Resistors_SMD:R_0603_HandSoldering" V 4830 4100 50  0001 C CNN
F 3 "" H 4900 4100 50  0000 C CNN
	1    4900 4100
	1    0    0    -1  
$EndComp
$Comp
L Nucleo-F446RE_2 U1
U 1 1 5B3AF103
P 2600 1950
F 0 "U1" H 2600 1950 60  0000 C CNN
F 1 "Nucleo-F446RE_2" H 2600 3050 60  0000 C CNN
F 2 "MyKicadFP:Nucleo-F446RE" H 2600 1950 60  0001 C CNN
F 3 "" H 2600 1950 60  0000 C CNN
	1    2600 1950
	1    0    0    -1  
$EndComp
$Comp
L Nucleo-F446RE_2 U1
U 2 1 5B3C176C
P 6600 1950
F 0 "U1" H 6600 1950 60  0000 C CNN
F 1 "Nucleo-F446RE_2" H 6600 3050 60  0000 C CNN
F 2 "MyKicadFP:Nucleo-F446RE" H 6600 1950 60  0001 C CNN
F 3 "" H 6600 1950 60  0000 C CNN
	2    6600 1950
	1    0    0    -1  
$EndComp
Text GLabel 5850 1550 0    51   Input ~ 0
ENC_1_A
Text GLabel 5850 2550 0    51   Input ~ 0
ENC_1_B
$Comp
L CONN_01X03 P7
U 1 1 5B3D1FD4
P 5200 2850
F 0 "P7" H 5200 3050 50  0000 C CNN
F 1 "USART" V 5300 2850 50  0000 C CNN
F 2 "Connectors_JST:JST_XH_B03B-XH-A_03x2.50mm_Straight" H 5200 2850 50  0001 C CNN
F 3 "" H 5200 2850 50  0000 C CNN
	1    5200 2850
	-1   0    0    -1  
$EndComp
$Comp
L GND #PWR042
U 1 1 5B3D32C6
P 5500 3050
F 0 "#PWR042" H 5500 2800 50  0001 C CNN
F 1 "GND" H 5500 2900 50  0000 C CNN
F 2 "" H 5500 3050 50  0000 C CNN
F 3 "" H 5500 3050 50  0000 C CNN
	1    5500 3050
	1    0    0    -1  
$EndComp
Text GLabel 1850 1050 0    51   Output ~ 0
SPI_SCK
Text GLabel 3350 1050 2    51   Input ~ 0
SPI_MISO
Text GLabel 1850 1150 0    51   Output ~ 0
SPI_MOSI
Text GLabel 5850 1850 0    51   Input ~ 0
ENC_2_A
Text GLabel 1850 2050 0    51   Input ~ 0
ENC_2_B
Text GLabel 5850 2350 0    51   Input ~ 0
ENC_3_A
Text GLabel 5850 2450 0    51   Input ~ 0
ENC_3_B
Text GLabel 3350 2350 2    51   Input ~ 0
ENC_4_A
Text GLabel 3350 2450 2    51   Input ~ 0
ENC_4_B
Text GLabel 5850 2150 0    51   Output ~ 0
MD3_PWM
Text GLabel 7350 1650 2    51   Output ~ 0
MD4_PWM
Text GLabel 7350 2250 2    51   Output ~ 0
PWM_VACUUM_SERVO_1
Text GLabel 7350 2350 2    51   Output ~ 0
PWM_VACUUM_SERVO_2
Text GLabel 5850 2650 0    51   Output ~ 0
MD1_PWM
Text GLabel 5850 2050 0    51   Output ~ 0
MD2_PWM
Text GLabel 5850 1150 0    51   Output ~ 0
PWM_VACUUM_SERVO_3
Text GLabel 7350 1150 2    51   Output ~ 0
SERVO_SIG_1
Text GLabel 5850 1050 0    51   Output ~ 0
SERVO_SIG_2
Text GLabel 7350 1050 2    51   Output ~ 0
SERVO_SIG_3
Text GLabel 3350 2550 2    51   Input ~ 0
MP_IN
Text GLabel 5850 1750 0    51   Output ~ 0
MP_A
Text GLabel 5850 1650 0    51   Output ~ 0
MP_B
Text GLabel 7350 2650 2    51   Output ~ 0
MP_C
Text GLabel 1850 1850 0    51   Output ~ 0
SPI_CS1
Text GLabel 3350 1150 2    51   Output ~ 0
SPI_CS2
$Comp
L SWITCH_INV SW1
U 1 1 5B42A810
P 4300 4450
F 0 "SW1" H 4100 4600 50  0000 C CNN
F 1 "SWITCH_INV" H 4150 4300 50  0000 C CNN
F 2 "MyKicadFP:SlideSwitch" H 4300 4450 50  0001 C CNN
F 3 "" H 4300 4450 50  0000 C CNN
	1    4300 4450
	1    0    0    -1  
$EndComp
$Comp
L +3.3V #PWR043
U 1 1 5B435A44
P 3450 1650
F 0 "#PWR043" H 3450 1500 50  0001 C CNN
F 1 "+3.3V" H 3450 1790 50  0000 C CNN
F 2 "" H 3450 1650 50  0000 C CNN
F 3 "" H 3450 1650 50  0000 C CNN
	1    3450 1650
	1    0    0    -1  
$EndComp
$Comp
L +5V #PWR044
U 1 1 5B435F1C
P 3700 1650
F 0 "#PWR044" H 3700 1500 50  0001 C CNN
F 1 "+5V" H 3700 1790 50  0000 C CNN
F 2 "" H 3700 1650 50  0000 C CNN
F 3 "" H 3700 1650 50  0000 C CNN
	1    3700 1650
	1    0    0    -1  
$EndComp
NoConn ~ 3250 1650
NoConn ~ 3250 1550
$Comp
L GND #PWR045
U 1 1 5B43774A
P 4200 2150
F 0 "#PWR045" H 4200 1900 50  0001 C CNN
F 1 "GND" H 4200 2000 50  0000 C CNN
F 2 "" H 4200 2150 50  0000 C CNN
F 3 "" H 4200 2150 50  0000 C CNN
	1    4200 2150
	1    0    0    -1  
$EndComp
$Comp
L +BATT #PWR046
U 1 1 5B437FF2
P 3950 1650
F 0 "#PWR046" H 3950 1500 50  0001 C CNN
F 1 "+BATT" H 3950 1790 50  0000 C CNN
F 2 "" H 3950 1650 50  0000 C CNN
F 3 "" H 3950 1650 50  0000 C CNN
	1    3950 1650
	1    0    0    -1  
$EndComp
NoConn ~ 7250 1350
NoConn ~ 5950 1350
NoConn ~ 7250 2550
NoConn ~ 1950 2650
NoConn ~ 1950 1250
NoConn ~ 1950 1350
NoConn ~ 3250 1250
$Comp
L GND #PWR048
U 1 1 5B44CDD0
P 1250 2050
F 0 "#PWR048" H 1250 1800 50  0001 C CNN
F 1 "GND" H 1250 1900 50  0000 C CNN
F 2 "" H 1250 2050 50  0000 C CNN
F 3 "" H 1250 2050 50  0000 C CNN
	1    1250 2050
	1    0    0    -1  
$EndComp
Text GLabel 7450 1250 2    51   Output ~ 0
MD1_INA
Text GLabel 3450 2650 2    51   Output ~ 0
MD1_INB
Text GLabel 7450 2150 2    51   Output ~ 0
MD2_INA
Text GLabel 7450 2050 2    51   Output ~ 0
MD2_INB
Text GLabel 5750 2250 0    51   Output ~ 0
MD3_INA
Text GLabel 7450 1750 2    51   Output ~ 0
MD3_INB
Text GLabel 7450 2450 2    51   Output ~ 0
MD4_INA
Text GLabel 7450 1550 2    51   Output ~ 0
MD4_INB
NoConn ~ 1950 2150
NoConn ~ 1950 2250
NoConn ~ 1950 2350
NoConn ~ 1950 2450
NoConn ~ 1950 2550
$Comp
L CONN_01X03 P20
U 1 1 5B371C2E
P 2950 6000
F 0 "P20" H 2950 6200 50  0000 C CNN
F 1 "IO" V 3050 6000 50  0000 C CNN
F 2 "Connectors_JST:JST_XH_B03B-XH-A_03x2.50mm_Straight" H 2950 6000 50  0001 C CNN
F 3 "" H 2950 6000 50  0000 C CNN
	1    2950 6000
	1    0    0    -1  
$EndComp
$Comp
L CONN_01X03 P22
U 1 1 5B37766D
P 4000 6000
F 0 "P22" H 4000 6200 50  0000 C CNN
F 1 "IO" V 4100 6000 50  0000 C CNN
F 2 "Connectors_JST:JST_XH_B03B-XH-A_03x2.50mm_Straight" H 4000 6000 50  0001 C CNN
F 3 "" H 4000 6000 50  0000 C CNN
	1    4000 6000
	1    0    0    -1  
$EndComp
Text GLabel 1850 2850 0    51   BiDi ~ 0
IO_1
Text GLabel 1850 1750 0    51   BiDi ~ 0
IO_2
Text GLabel 1850 1650 0    51   BiDi ~ 0
IO_3
Text GLabel 2550 5900 0    51   BiDi ~ 0
IO_1
$Comp
L +3.3V #PWR049
U 1 1 5B392874
P 2650 5800
F 0 "#PWR049" H 2650 5650 50  0001 C CNN
F 1 "+3.3V" H 2650 5940 50  0000 C CNN
F 2 "" H 2650 5800 50  0000 C CNN
F 3 "" H 2650 5800 50  0000 C CNN
	1    2650 5800
	1    0    0    -1  
$EndComp
$Comp
L GND #PWR050
U 1 1 5B392EE8
P 2650 6200
F 0 "#PWR050" H 2650 5950 50  0001 C CNN
F 1 "GND" H 2650 6050 50  0000 C CNN
F 2 "" H 2650 6200 50  0000 C CNN
F 3 "" H 2650 6200 50  0000 C CNN
	1    2650 6200
	1    0    0    -1  
$EndComp
$Comp
L +3.3V #PWR051
U 1 1 5B3BA490
P 3700 5800
F 0 "#PWR051" H 3700 5650 50  0001 C CNN
F 1 "+3.3V" H 3700 5940 50  0000 C CNN
F 2 "" H 3700 5800 50  0000 C CNN
F 3 "" H 3700 5800 50  0000 C CNN
	1    3700 5800
	1    0    0    -1  
$EndComp
Text GLabel 3600 5900 0    51   BiDi ~ 0
IO_2
$Comp
L GND #PWR052
U 1 1 5B3BBD36
P 3700 6200
F 0 "#PWR052" H 3700 5950 50  0001 C CNN
F 1 "GND" H 3700 6050 50  0000 C CNN
F 2 "" H 3700 6200 50  0000 C CNN
F 3 "" H 3700 6200 50  0000 C CNN
	1    3700 6200
	1    0    0    -1  
$EndComp
$Comp
L CONN_01X03 P26
U 1 1 5B3BDE87
P 5050 6000
F 0 "P26" H 5050 6200 50  0000 C CNN
F 1 "IO" V 5150 6000 50  0000 C CNN
F 2 "Connectors_JST:JST_XH_B03B-XH-A_03x2.50mm_Straight" H 5050 6000 50  0001 C CNN
F 3 "" H 5050 6000 50  0000 C CNN
	1    5050 6000
	1    0    0    -1  
$EndComp
$Comp
L +3.3V #PWR053
U 1 1 5B3BE025
P 4750 5800
F 0 "#PWR053" H 4750 5650 50  0001 C CNN
F 1 "+3.3V" H 4750 5940 50  0000 C CNN
F 2 "" H 4750 5800 50  0000 C CNN
F 3 "" H 4750 5800 50  0000 C CNN
	1    4750 5800
	1    0    0    -1  
$EndComp
$Comp
L GND #PWR054
U 1 1 5B3BF59E
P 4750 6200
F 0 "#PWR054" H 4750 5950 50  0001 C CNN
F 1 "GND" H 4750 6050 50  0000 C CNN
F 2 "" H 4750 6200 50  0000 C CNN
F 3 "" H 4750 6200 50  0000 C CNN
	1    4750 6200
	1    0    0    -1  
$EndComp
Text GLabel 4650 5900 0    51   BiDi ~ 0
IO_3
Text Notes 2300 5350 0    197  ~ 39
IO
$Comp
L PWR_FLAG #FLG055
U 1 1 5B3FFF68
P 4100 10100
F 0 "#FLG055" H 4100 10195 50  0001 C CNN
F 1 "PWR_FLAG" H 4100 10280 50  0000 C CNN
F 2 "" H 4100 10100 50  0000 C CNN
F 3 "" H 4100 10100 50  0000 C CNN
	1    4100 10100
	1    0    0    -1  
$EndComp
$Comp
L PWR_FLAG #FLG056
U 1 1 5B4032EE
P 2250 9150
F 0 "#FLG056" H 2250 9245 50  0001 C CNN
F 1 "PWR_FLAG" H 2250 9330 50  0000 C CNN
F 2 "" H 2250 9150 50  0000 C CNN
F 3 "" H 2250 9150 50  0000 C CNN
	1    2250 9150
	-1   0    0    1   
$EndComp
NoConn ~ 11550 10800
NoConn ~ 10650 10800
NoConn ~ 4800 4550
$Comp
L PWR_FLAG #FLG057
U 1 1 5B40F8CB
P 6200 3750
F 0 "#FLG057" H 6200 3845 50  0001 C CNN
F 1 "PWR_FLAG" H 6200 3930 50  0000 C CNN
F 2 "" H 6200 3750 50  0000 C CNN
F 3 "" H 6200 3750 50  0000 C CNN
	1    6200 3750
	1    0    0    -1  
$EndComp
$Comp
L CP1 C4
U 1 1 5B4CD464
P 5500 4100
F 0 "C4" H 5525 4200 50  0000 L CNN
F 1 "100u" H 5525 4000 50  0000 L CNN
F 2 "Capacitors_ThroughHole:CP_Radial_D5.0mm_P2.50mm" H 5500 4100 50  0001 C CNN
F 3 "" H 5500 4100 50  0000 C CNN
	1    5500 4100
	1    0    0    -1  
$EndComp
$Comp
L GND #PWR058
U 1 1 5B4D1F08
P 5500 4450
F 0 "#PWR058" H 5500 4200 50  0001 C CNN
F 1 "GND" H 5500 4300 50  0000 C CNN
F 2 "" H 5500 4450 50  0000 C CNN
F 3 "" H 5500 4450 50  0000 C CNN
	1    5500 4450
	1    0    0    -1  
$EndComp
$Comp
L C C3
U 1 1 5B4D602A
P 2000 6000
F 0 "C3" H 2025 6100 50  0000 L CNN
F 1 "0.1u" H 2025 5900 50  0000 L CNN
F 2 "Resistors_SMD:R_0603_HandSoldering" H 2038 5850 50  0001 C CNN
F 3 "" H 2000 6000 50  0000 C CNN
	1    2000 6000
	1    0    0    -1  
$EndComp
$Comp
L +3.3V #PWR059
U 1 1 5B4D8949
P 2000 5800
F 0 "#PWR059" H 2000 5650 50  0001 C CNN
F 1 "+3.3V" H 2000 5940 50  0000 C CNN
F 2 "" H 2000 5800 50  0000 C CNN
F 3 "" H 2000 5800 50  0000 C CNN
	1    2000 5800
	1    0    0    -1  
$EndComp
$Comp
L GND #PWR060
U 1 1 5B4D8A9C
P 2000 6200
F 0 "#PWR060" H 2000 5950 50  0001 C CNN
F 1 "GND" H 2000 6050 50  0000 C CNN
F 2 "" H 2000 6200 50  0000 C CNN
F 3 "" H 2000 6200 50  0000 C CNN
	1    2000 6200
	1    0    0    -1  
$EndComp
$Comp
L C C8
U 1 1 5B52E807
P 11450 3450
F 0 "C8" H 11475 3550 50  0000 L CNN
F 1 "0.1u" H 11475 3350 50  0000 L CNN
F 2 "Resistors_SMD:R_0603_HandSoldering" H 11488 3300 50  0001 C CNN
F 3 "" H 11450 3450 50  0000 C CNN
	1    11450 3450
	0    -1   -1   0   
$EndComp
$Comp
L GND #PWR061
U 1 1 5B530F3F
P 11700 3550
F 0 "#PWR061" H 11700 3300 50  0001 C CNN
F 1 "GND" H 11700 3400 50  0000 C CNN
F 2 "" H 11700 3550 50  0000 C CNN
F 3 "" H 11700 3550 50  0000 C CNN
	1    11700 3550
	1    0    0    -1  
$EndComp
$Comp
L LED D2
U 1 1 5B383620
P 6200 4150
F 0 "D2" H 6200 4250 50  0000 C CNN
F 1 "BLUE" H 6200 4050 50  0000 C CNN
F 2 "MyKicadFP:LED_D3.0mm" H 6200 4150 50  0001 C CNN
F 3 "" H 6200 4150 50  0000 C CNN
	1    6200 4150
	0    -1   -1   0   
$EndComp
$Comp
L R R26
U 1 1 5B38374D
P 6200 4600
F 0 "R26" V 6280 4600 50  0000 C CNN
F 1 "2.2k" V 6200 4600 50  0000 C CNN
F 2 "Resistors_SMD:R_0603_HandSoldering" V 6130 4600 50  0001 C CNN
F 3 "" H 6200 4600 50  0000 C CNN
	1    6200 4600
	1    0    0    -1  
$EndComp
$Comp
L GND #PWR062
U 1 1 5B38577A
P 6200 4850
F 0 "#PWR062" H 6200 4600 50  0001 C CNN
F 1 "GND" H 6200 4700 50  0000 C CNN
F 2 "" H 6200 4850 50  0000 C CNN
F 3 "" H 6200 4850 50  0000 C CNN
	1    6200 4850
	1    0    0    -1  
$EndComp
$Comp
L LED D1
U 1 1 5B38678D
P 4100 8650
F 0 "D1" H 4100 8750 50  0000 C CNN
F 1 "BLUE" H 4100 8550 50  0000 C CNN
F 2 "MyKicadFP:LED_D3.0mm" H 4100 8650 50  0001 C CNN
F 3 "" H 4100 8650 50  0000 C CNN
	1    4100 8650
	0    -1   -1   0   
$EndComp
$Comp
L R R25
U 1 1 5B38CB90
P 4100 9100
F 0 "R25" V 4180 9100 50  0000 C CNN
F 1 "10k" V 4100 9100 50  0000 C CNN
F 2 "Resistors_SMD:R_0603_HandSoldering" V 4030 9100 50  0001 C CNN
F 3 "" H 4100 9100 50  0000 C CNN
	1    4100 9100
	1    0    0    -1  
$EndComp
$Comp
L GNDA #PWR063
U 1 1 5B3997AA
P 4100 9350
F 0 "#PWR063" H 4100 9100 50  0001 C CNN
F 1 "GNDA" H 4100 9200 50  0000 C CNN
F 2 "" H 4100 9350 50  0000 C CNN
F 3 "" H 4100 9350 50  0000 C CNN
	1    4100 9350
	1    0    0    -1  
$EndComp
$Comp
L C C13
U 1 1 5B408933
P 5850 4100
F 0 "C13" H 5875 4200 50  0000 L CNN
F 1 "0.1u" H 5875 4000 50  0000 L CNN
F 2 "Resistors_SMD:R_0603_HandSoldering" H 5888 3950 50  0001 C CNN
F 3 "" H 5850 4100 50  0000 C CNN
	1    5850 4100
	1    0    0    -1  
$EndComp
$Comp
L R R5
U 1 1 5B42E099
P 2650 13400
F 0 "R5" V 2730 13400 50  0000 C CNN
F 1 "1k" V 2650 13400 50  0000 C CNN
F 2 "Resistors_SMD:R_0603_HandSoldering" V 2580 13400 50  0001 C CNN
F 3 "" H 2650 13400 50  0000 C CNN
	1    2650 13400
	0    -1   -1   0   
$EndComp
$Comp
L GND #PWR064
U 1 1 5B43094C
P 2800 13700
F 0 "#PWR064" H 2800 13450 50  0001 C CNN
F 1 "GND" H 2800 13550 50  0000 C CNN
F 2 "" H 2800 13700 50  0000 C CNN
F 3 "" H 2800 13700 50  0000 C CNN
	1    2800 13700
	1    0    0    -1  
$EndComp
$Comp
L Q_PNP_BEC Q4
U 1 1 5B438371
P 3750 13100
F 0 "Q4" H 4050 13150 50  0000 R CNN
F 1 "Q_PNP_BEC" H 4350 13050 50  0000 R CNN
F 2 "TO_SOT_Packages_SMD:SC-59_Handsoldering" H 3950 13200 50  0001 C CNN
F 3 "" H 3750 13100 50  0000 C CNN
	1    3750 13100
	-1   0    0    1   
$EndComp
$Comp
L Q_PNP_BEC Q5
U 1 1 5B43D3FB
P 4350 13100
F 0 "Q5" H 4650 13150 50  0000 R CNN
F 1 "Q_PNP_BEC" H 4950 13050 50  0000 R CNN
F 2 "TO_SOT_Packages_SMD:SC-59_Handsoldering" H 4550 13200 50  0001 C CNN
F 3 "" H 4350 13100 50  0000 C CNN
	1    4350 13100
	1    0    0    1   
$EndComp
$Comp
L R R7
U 1 1 5B440FB3
P 4450 13650
F 0 "R7" V 4530 13650 50  0000 C CNN
F 1 "1k" V 4450 13650 50  0000 C CNN
F 2 "Resistors_SMD:R_0603_HandSoldering" V 4380 13650 50  0001 C CNN
F 3 "" H 4450 13650 50  0000 C CNN
	1    4450 13650
	1    0    0    -1  
$EndComp
$Comp
L C C11
U 1 1 5B45E5FC
P 4450 8650
F 0 "C11" H 4475 8750 50  0000 L CNN
F 1 "0.1u" H 4475 8550 50  0000 L CNN
F 2 "Resistors_SMD:R_0603_HandSoldering" H 4488 8500 50  0001 C CNN
F 3 "" H 4450 8650 50  0000 C CNN
	1    4450 8650
	1    0    0    -1  
$EndComp
$Comp
L CP1 C12
U 1 1 5B460E96
P 5450 8650
F 0 "C12" H 5475 8750 50  0000 L CNN
F 1 "22u" H 5475 8550 50  0000 L CNN
F 2 "Capacitors_ThroughHole:CP_Radial_D5.0mm_P2.50mm" H 5450 8650 50  0001 C CNN
F 3 "" H 5450 8650 50  0000 C CNN
	1    5450 8650
	1    0    0    -1  
$EndComp
$Comp
L GNDA #PWR065
U 1 1 5B46F8DB
P 4950 9000
F 0 "#PWR065" H 4950 8750 50  0001 C CNN
F 1 "GNDA" H 4950 8850 50  0000 C CNN
F 2 "" H 4950 9000 50  0000 C CNN
F 3 "" H 4950 9000 50  0000 C CNN
	1    4950 9000
	1    0    0    -1  
$EndComp
$Comp
L GNDA #PWR066
U 1 1 5B470DC3
P 4450 13900
F 0 "#PWR066" H 4450 13650 50  0001 C CNN
F 1 "GNDA" H 4450 13750 50  0000 C CNN
F 2 "" H 4450 13900 50  0000 C CNN
F 3 "" H 4450 13900 50  0000 C CNN
	1    4450 13900
	1    0    0    -1  
$EndComp
$Comp
L LED D3
U 1 1 5B4B5293
P 4100 10500
F 0 "D3" H 4100 10600 50  0000 C CNN
F 1 "BLUE" H 4100 10400 50  0000 C CNN
F 2 "MyKicadFP:LED_D3.0mm" H 4100 10500 50  0001 C CNN
F 3 "" H 4100 10500 50  0000 C CNN
	1    4100 10500
	0    -1   -1   0   
$EndComp
$Comp
L R R6
U 1 1 5B4B8A78
P 4100 10950
F 0 "R6" V 4180 10950 50  0000 C CNN
F 1 "2.2k" V 4100 10950 50  0000 C CNN
F 2 "Resistors_SMD:R_0603_HandSoldering" V 4030 10950 50  0001 C CNN
F 3 "" H 4100 10950 50  0000 C CNN
	1    4100 10950
	1    0    0    -1  
$EndComp
$Comp
L GND #PWR067
U 1 1 5B4C222D
P 4100 11200
F 0 "#PWR067" H 4100 10950 50  0001 C CNN
F 1 "GND" H 4100 11050 50  0000 C CNN
F 2 "" H 4100 11200 50  0000 C CNN
F 3 "" H 4100 11200 50  0000 C CNN
	1    4100 11200
	1    0    0    -1  
$EndComp
$Comp
L +24V #PWR068
U 1 1 5B502B91
P 10650 12700
F 0 "#PWR068" H 10650 12550 50  0001 C CNN
F 1 "+24V" H 10650 12840 50  0000 C CNN
F 2 "" H 10650 12700 50  0000 C CNN
F 3 "" H 10650 12700 50  0000 C CNN
	1    10650 12700
	1    0    0    -1  
$EndComp
$Comp
L CONN_01X02 P11
U 1 1 5B502B97
P 10950 12950
F 0 "P11" H 10950 13100 50  0000 C CNN
F 1 "MOTOR" V 11050 12950 50  0000 C CNN
F 2 "Connectors_JST:JST_XH_B02B-XH-A_02x2.50mm_Straight" H 10950 12950 50  0001 C CNN
F 3 "" H 10950 12950 50  0000 C CNN
	1    10950 12950
	1    0    0    -1  
$EndComp
Text GLabel 7450 13400 0    51   Input ~ 0
PWM_VACUUM_SERVO_2
$Comp
L R R28
U 1 1 5B502BA4
P 10100 13400
F 0 "R28" V 10180 13400 50  0000 C CNN
F 1 "10" V 10100 13400 50  0000 C CNN
F 2 "Resistors_SMD:R_0603_HandSoldering" V 10030 13400 50  0001 C CNN
F 3 "" H 10100 13400 50  0000 C CNN
	1    10100 13400
	0    -1   -1   0   
$EndComp
$Comp
L R R29
U 1 1 5B502BAA
P 10300 13600
F 0 "R29" V 10380 13600 50  0000 C CNN
F 1 "100k" V 10300 13600 50  0000 C CNN
F 2 "Resistors_SMD:R_0603_HandSoldering" V 10230 13600 50  0001 C CNN
F 3 "" H 10300 13600 50  0000 C CNN
	1    10300 13600
	1    0    0    -1  
$EndComp
$Comp
L GNDA #PWR069
U 1 1 5B502BB6
P 10650 14000
F 0 "#PWR069" H 10650 13750 50  0001 C CNN
F 1 "GNDA" H 10650 13850 50  0000 C CNN
F 2 "" H 10650 14000 50  0000 C CNN
F 3 "" H 10650 14000 50  0000 C CNN
	1    10650 14000
	1    0    0    -1  
$EndComp
$Comp
L TLP291 U12
U 1 1 5B502BEC
P 8350 13500
F 0 "U12" H 8150 13700 50  0000 L CNN
F 1 "TLP291" H 8350 13700 50  0000 L CNN
F 2 "MyKicadFP:TLP291" H 8150 13300 50  0000 L CIN
F 3 "" H 8350 13500 50  0000 L CNN
	1    8350 13500
	1    0    0    -1  
$EndComp
$Comp
L R R8
U 1 1 5B502BF2
P 7800 13400
F 0 "R8" V 7880 13400 50  0000 C CNN
F 1 "1k" V 7800 13400 50  0000 C CNN
F 2 "Resistors_SMD:R_0603_HandSoldering" V 7730 13400 50  0001 C CNN
F 3 "" H 7800 13400 50  0000 C CNN
	1    7800 13400
	0    -1   -1   0   
$EndComp
$Comp
L GND #PWR070
U 1 1 5B502BFB
P 7950 13700
F 0 "#PWR070" H 7950 13450 50  0001 C CNN
F 1 "GND" H 7950 13550 50  0000 C CNN
F 2 "" H 7950 13700 50  0000 C CNN
F 3 "" H 7950 13700 50  0000 C CNN
	1    7950 13700
	1    0    0    -1  
$EndComp
$Comp
L Q_PNP_BEC Q8
U 1 1 5B502C03
P 8900 13100
F 0 "Q8" H 9200 13150 50  0000 R CNN
F 1 "Q_PNP_BEC" H 9500 13050 50  0000 R CNN
F 2 "TO_SOT_Packages_SMD:SC-59_Handsoldering" H 9100 13200 50  0001 C CNN
F 3 "" H 8900 13100 50  0000 C CNN
	1    8900 13100
	-1   0    0    1   
$EndComp
$Comp
L Q_PNP_BEC Q9
U 1 1 5B502C09
P 9500 13100
F 0 "Q9" H 9800 13150 50  0000 R CNN
F 1 "Q_PNP_BEC" H 10100 13050 50  0000 R CNN
F 2 "TO_SOT_Packages_SMD:SC-59_Handsoldering" H 9700 13200 50  0001 C CNN
F 3 "" H 9500 13100 50  0000 C CNN
	1    9500 13100
	1    0    0    1   
$EndComp
$Comp
L R R27
U 1 1 5B502C17
P 9600 13650
F 0 "R27" V 9680 13650 50  0000 C CNN
F 1 "1k" V 9600 13650 50  0000 C CNN
F 2 "Resistors_SMD:R_0603_HandSoldering" V 9530 13650 50  0001 C CNN
F 3 "" H 9600 13650 50  0000 C CNN
	1    9600 13650
	1    0    0    -1  
$EndComp
$Comp
L GNDA #PWR071
U 1 1 5B502C2D
P 9600 13900
F 0 "#PWR071" H 9600 13650 50  0001 C CNN
F 1 "GNDA" H 9600 13750 50  0000 C CNN
F 2 "" H 9600 13900 50  0000 C CNN
F 3 "" H 9600 13900 50  0000 C CNN
	1    9600 13900
	1    0    0    -1  
$EndComp
$Comp
L +24V #PWR072
U 1 1 5B50576F
P 15800 12700
F 0 "#PWR072" H 15800 12550 50  0001 C CNN
F 1 "+24V" H 15800 12840 50  0000 C CNN
F 2 "" H 15800 12700 50  0000 C CNN
F 3 "" H 15800 12700 50  0000 C CNN
	1    15800 12700
	1    0    0    -1  
$EndComp
$Comp
L CONN_01X02 P19
U 1 1 5B505775
P 16100 12950
F 0 "P19" H 16100 13100 50  0000 C CNN
F 1 "MOTOR" V 16200 12950 50  0000 C CNN
F 2 "Connectors_JST:JST_XH_B02B-XH-A_02x2.50mm_Straight" H 16100 12950 50  0001 C CNN
F 3 "" H 16100 12950 50  0000 C CNN
	1    16100 12950
	1    0    0    -1  
$EndComp
Text GLabel 12600 13400 0    51   Input ~ 0
PWM_VACUUM_SERVO_3
$Comp
L CONN_01X03 P16
U 1 1 5B50577C
P 15850 15000
F 0 "P16" H 15850 15200 50  0000 C CNN
F 1 "SERVO" V 15950 15000 50  0000 C CNN
F 2 "Connectors_JST:JST_XH_B03B-XH-A_03x2.50mm_Straight" H 15850 15000 50  0001 C CNN
F 3 "" H 15850 15000 50  0000 C CNN
	1    15850 15000
	1    0    0    -1  
$EndComp
$Comp
L R R32
U 1 1 5B505782
P 15250 13400
F 0 "R32" V 15330 13400 50  0000 C CNN
F 1 "10" V 15250 13400 50  0000 C CNN
F 2 "Resistors_SMD:R_0603_HandSoldering" V 15180 13400 50  0001 C CNN
F 3 "" H 15250 13400 50  0000 C CNN
	1    15250 13400
	0    -1   -1   0   
$EndComp
$Comp
L R R41
U 1 1 5B505788
P 15450 13600
F 0 "R41" V 15530 13600 50  0000 C CNN
F 1 "100k" V 15450 13600 50  0000 C CNN
F 2 "Resistors_SMD:R_0603_HandSoldering" V 15380 13600 50  0001 C CNN
F 3 "" H 15450 13600 50  0000 C CNN
	1    15450 13600
	1    0    0    -1  
$EndComp
$Comp
L +6V #PWR073
U 1 1 5B50578E
P 15550 14800
F 0 "#PWR073" H 15550 14650 50  0001 C CNN
F 1 "+6V" H 15550 14940 50  0000 C CNN
F 2 "" H 15550 14800 50  0000 C CNN
F 3 "" H 15550 14800 50  0000 C CNN
	1    15550 14800
	1    0    0    -1  
$EndComp
$Comp
L GNDA #PWR074
U 1 1 5B505794
P 15800 14000
F 0 "#PWR074" H 15800 13750 50  0001 C CNN
F 1 "GNDA" H 15800 13850 50  0000 C CNN
F 2 "" H 15800 14000 50  0000 C CNN
F 3 "" H 15800 14000 50  0000 C CNN
	1    15800 14000
	1    0    0    -1  
$EndComp
$Comp
L TLP291 U13
U 1 1 5B5057CA
P 13500 13500
F 0 "U13" H 13300 13700 50  0000 L CNN
F 1 "TLP291" H 13500 13700 50  0000 L CNN
F 2 "MyKicadFP:TLP291" H 13300 13300 50  0000 L CIN
F 3 "" H 13500 13500 50  0000 L CNN
	1    13500 13500
	1    0    0    -1  
$EndComp
$Comp
L R R30
U 1 1 5B5057D0
P 12950 13400
F 0 "R30" V 13030 13400 50  0000 C CNN
F 1 "1k" V 12950 13400 50  0000 C CNN
F 2 "Resistors_SMD:R_0603_HandSoldering" V 12880 13400 50  0001 C CNN
F 3 "" H 12950 13400 50  0000 C CNN
	1    12950 13400
	0    -1   -1   0   
$EndComp
$Comp
L GND #PWR075
U 1 1 5B5057D9
P 13100 13700
F 0 "#PWR075" H 13100 13450 50  0001 C CNN
F 1 "GND" H 13100 13550 50  0000 C CNN
F 2 "" H 13100 13700 50  0000 C CNN
F 3 "" H 13100 13700 50  0000 C CNN
	1    13100 13700
	1    0    0    -1  
$EndComp
$Comp
L Q_PNP_BEC Q11
U 1 1 5B5057E1
P 14050 13100
F 0 "Q11" H 14350 13150 50  0000 R CNN
F 1 "Q_PNP_BEC" H 14650 13050 50  0000 R CNN
F 2 "TO_SOT_Packages_SMD:SC-59_Handsoldering" H 14250 13200 50  0001 C CNN
F 3 "" H 14050 13100 50  0000 C CNN
	1    14050 13100
	-1   0    0    1   
$EndComp
$Comp
L Q_PNP_BEC Q12
U 1 1 5B5057E7
P 14650 13100
F 0 "Q12" H 14950 13150 50  0000 R CNN
F 1 "Q_PNP_BEC" H 15250 13050 50  0000 R CNN
F 2 "TO_SOT_Packages_SMD:SC-59_Handsoldering" H 14850 13200 50  0001 C CNN
F 3 "" H 14650 13100 50  0000 C CNN
	1    14650 13100
	1    0    0    1   
$EndComp
$Comp
L R R31
U 1 1 5B5057F5
P 14750 13650
F 0 "R31" V 14830 13650 50  0000 C CNN
F 1 "1k" V 14750 13650 50  0000 C CNN
F 2 "Resistors_SMD:R_0603_HandSoldering" V 14680 13650 50  0001 C CNN
F 3 "" H 14750 13650 50  0000 C CNN
	1    14750 13650
	1    0    0    -1  
$EndComp
$Comp
L GNDA #PWR076
U 1 1 5B50580B
P 14750 13900
F 0 "#PWR076" H 14750 13650 50  0001 C CNN
F 1 "GNDA" H 14750 13750 50  0000 C CNN
F 2 "" H 14750 13900 50  0000 C CNN
F 3 "" H 14750 13900 50  0000 C CNN
	1    14750 13900
	1    0    0    -1  
$EndComp
$Comp
L GND #PWR077
U 1 1 5B505817
P 15550 15200
F 0 "#PWR077" H 15550 14950 50  0001 C CNN
F 1 "GND" H 15550 15050 50  0000 C CNN
F 2 "" H 15550 15200 50  0000 C CNN
F 3 "" H 15550 15200 50  0000 C CNN
	1    15550 15200
	1    0    0    -1  
$EndComp
$Comp
L GND #PWR078
U 1 1 5B55CECD
P 13950 10850
F 0 "#PWR078" H 13950 10600 50  0001 C CNN
F 1 "GND" H 13950 10700 50  0000 C CNN
F 2 "" H 13950 10850 50  0000 C CNN
F 3 "" H 13950 10850 50  0000 C CNN
	1    13950 10850
	1    0    0    -1  
$EndComp
$Comp
L GND #PWR079
U 1 1 5B55E170
P 13950 9900
F 0 "#PWR079" H 13950 9650 50  0001 C CNN
F 1 "GND" H 13950 9750 50  0000 C CNN
F 2 "" H 13950 9900 50  0000 C CNN
F 3 "" H 13950 9900 50  0000 C CNN
	1    13950 9900
	1    0    0    -1  
$EndComp
$Comp
L GND #PWR080
U 1 1 5B55F303
P 13950 8950
F 0 "#PWR080" H 13950 8700 50  0001 C CNN
F 1 "GND" H 13950 8800 50  0000 C CNN
F 2 "" H 13950 8950 50  0000 C CNN
F 3 "" H 13950 8950 50  0000 C CNN
	1    13950 8950
	1    0    0    -1  
$EndComp
$Comp
L PWR_FLAG #FLG081
U 1 1 5B571954
P 2550 4650
F 0 "#FLG081" H 2550 4745 50  0001 C CNN
F 1 "PWR_FLAG" H 2550 4830 50  0000 C CNN
F 2 "" H 2550 4650 50  0000 C CNN
F 3 "" H 2550 4650 50  0000 C CNN
	1    2550 4650
	-1   0    0    1   
$EndComp
$Comp
L GNDA #PWR082
U 1 1 5B5CCD1B
P 8750 13700
F 0 "#PWR082" H 8750 13450 50  0001 C CNN
F 1 "GNDA" H 8750 13550 50  0000 C CNN
F 2 "" H 8750 13700 50  0000 C CNN
F 3 "" H 8750 13700 50  0000 C CNN
	1    8750 13700
	1    0    0    -1  
$EndComp
$Comp
L GNDA #PWR083
U 1 1 5B5CE046
P 3600 13700
F 0 "#PWR083" H 3600 13450 50  0001 C CNN
F 1 "GNDA" H 3600 13550 50  0000 C CNN
F 2 "" H 3600 13700 50  0000 C CNN
F 3 "" H 3600 13700 50  0000 C CNN
	1    3600 13700
	1    0    0    -1  
$EndComp
$Comp
L GNDA #PWR084
U 1 1 5B5D212C
P 13900 13700
F 0 "#PWR084" H 13900 13450 50  0001 C CNN
F 1 "GNDA" H 13900 13550 50  0000 C CNN
F 2 "" H 13900 13700 50  0000 C CNN
F 3 "" H 13900 13700 50  0000 C CNN
	1    13900 13700
	1    0    0    -1  
$EndComp
$Comp
L Q_PMOS_GDS Q6
U 1 1 5B6E29E4
P 3700 3950
F 0 "Q6" H 4000 4000 50  0000 R CNN
F 1 "Q_PMOS_GDS" H 4350 3900 50  0000 R CNN
F 2 "MyKicadFP:2SJ681" H 3900 4050 50  0001 C CNN
F 3 "" H 3700 3950 50  0000 C CNN
	1    3700 3950
	0    -1   -1   0   
$EndComp
$Comp
L Q_PMOS_GDS Q7
U 1 1 5B6E2D3D
P 5200 3950
F 0 "Q7" H 5500 4000 50  0000 R CNN
F 1 "Q_PMOS_GDS" H 5850 3900 50  0000 R CNN
F 2 "MyKicadFP:2SJ681" H 5400 4050 50  0001 C CNN
F 3 "" H 5200 3950 50  0000 C CNN
	1    5200 3950
	0    1    -1   0   
$EndComp
$Comp
L Q_PMOS_GDS Q2
U 1 1 5B6E7D39
P 3450 8450
F 0 "Q2" H 3750 8500 50  0000 R CNN
F 1 "Q_PMOS_GDS" H 4100 8400 50  0000 R CNN
F 2 "MyKicadFP:2SJ681" H 3650 8550 50  0001 C CNN
F 3 "" H 3450 8450 50  0000 C CNN
	1    3450 8450
	0    -1   -1   0   
$EndComp
$Comp
L Q_PMOS_GDS Q3
U 1 1 5B6EC094
P 3450 10300
F 0 "Q3" H 3750 10350 50  0000 R CNN
F 1 "Q_PMOS_GDS" H 4100 10250 50  0000 R CNN
F 2 "MyKicadFP:2SJ681" H 3650 10400 50  0001 C CNN
F 3 "" H 3450 10300 50  0000 C CNN
	1    3450 10300
	0    -1   -1   0   
$EndComp
$Comp
L TLP291 U10
U 1 1 5B38C966
P 3200 13500
F 0 "U10" H 3000 13700 50  0000 L CNN
F 1 "TLP291" H 3200 13700 50  0000 L CNN
F 2 "MyKicadFP:TLP291" H 3000 13300 50  0000 L CIN
F 3 "" H 3200 13500 50  0000 L CNN
	1    3200 13500
	1    0    0    -1  
$EndComp
$Comp
L Q_NMOS_GDS Q1
U 1 1 5B446AF3
P 5400 13400
F 0 "Q1" H 5700 13450 50  0000 R CNN
F 1 "Q_NMOS_GDS" H 6050 13350 50  0000 R CNN
F 2 "MyKicadFP:DPAK(L)-(1)" H 5600 13500 50  0001 C CNN
F 3 "" H 5400 13400 50  0000 C CNN
	1    5400 13400
	1    0    0    -1  
$EndComp
$Comp
L Q_NMOS_GDS Q10
U 1 1 5B448494
P 10550 13400
F 0 "Q10" H 10850 13450 50  0000 R CNN
F 1 "Q_NMOS_GDS" H 11200 13350 50  0000 R CNN
F 2 "MyKicadFP:DPAK(L)-(1)" H 10750 13500 50  0001 C CNN
F 3 "" H 10550 13400 50  0000 C CNN
	1    10550 13400
	1    0    0    -1  
$EndComp
$Comp
L Q_NMOS_GDS Q13
U 1 1 5B449167
P 15700 13400
F 0 "Q13" H 16000 13450 50  0000 R CNN
F 1 "Q_NMOS_GDS" H 16350 13350 50  0000 R CNN
F 2 "MyKicadFP:DPAK(L)-(1)" H 15900 13500 50  0001 C CNN
F 3 "" H 15700 13400 50  0000 C CNN
	1    15700 13400
	1    0    0    -1  
$EndComp
$Comp
L My7805-RESCUE-CatchRobo U11
U 1 1 5B4668FD
P 4950 8400
F 0 "U11" H 5100 8204 50  0000 C CNN
F 1 "NJM7800S" H 4950 8600 50  0000 C CNN
F 2 "TO_SOT_Packages_SMD:TO-252-2" H 4950 8400 50  0001 C CNN
F 3 "" H 4950 8400 50  0000 C CNN
	1    4950 8400
	1    0    0    -1  
$EndComp
Text GLabel 15500 9200 0    51   Input ~ 0
SERVO_SIG_4
$Comp
L CONN_01X03 P5
U 1 1 5B4D288C
P 15900 9300
F 0 "P5" H 15900 9500 50  0000 C CNN
F 1 "SERVO" V 16000 9300 50  0000 C CNN
F 2 "Connectors_JST:JST_XH_B03B-XH-A_03x2.50mm_Straight" H 15900 9300 50  0001 C CNN
F 3 "" H 15900 9300 50  0000 C CNN
	1    15900 9300
	1    0    0    -1  
$EndComp
$Comp
L +6V #PWR085
U 1 1 5B4D2892
P 15600 9100
F 0 "#PWR085" H 15600 8950 50  0001 C CNN
F 1 "+6V" H 15600 9240 50  0000 C CNN
F 2 "" H 15600 9100 50  0000 C CNN
F 3 "" H 15600 9100 50  0000 C CNN
	1    15600 9100
	1    0    0    -1  
$EndComp
$Comp
L GND #PWR086
U 1 1 5B4D2898
P 15600 9500
F 0 "#PWR086" H 15600 9250 50  0001 C CNN
F 1 "GND" H 15600 9350 50  0000 C CNN
F 2 "" H 15600 9500 50  0000 C CNN
F 3 "" H 15600 9500 50  0000 C CNN
	1    15600 9500
	1    0    0    -1  
$EndComp
Text GLabel 5850 1950 0    51   Output ~ 0
SERVO_SIG_4
Text GLabel 15500 10150 0    51   Input ~ 0
SERVO_SIG_5
$Comp
L CONN_01X03 P8
U 1 1 5B4FA718
P 15900 10250
F 0 "P8" H 15900 10450 50  0000 C CNN
F 1 "SERVO" V 16000 10250 50  0000 C CNN
F 2 "Connectors_JST:JST_XH_B03B-XH-A_03x2.50mm_Straight" H 15900 10250 50  0001 C CNN
F 3 "" H 15900 10250 50  0000 C CNN
	1    15900 10250
	1    0    0    -1  
$EndComp
$Comp
L +6V #PWR087
U 1 1 5B4FA71E
P 15600 10050
F 0 "#PWR087" H 15600 9900 50  0001 C CNN
F 1 "+6V" H 15600 10190 50  0000 C CNN
F 2 "" H 15600 10050 50  0000 C CNN
F 3 "" H 15600 10050 50  0000 C CNN
	1    15600 10050
	1    0    0    -1  
$EndComp
$Comp
L GND #PWR088
U 1 1 5B4FA724
P 15600 10450
F 0 "#PWR088" H 15600 10200 50  0001 C CNN
F 1 "GND" H 15600 10300 50  0000 C CNN
F 2 "" H 15600 10450 50  0000 C CNN
F 3 "" H 15600 10450 50  0000 C CNN
	1    15600 10450
	1    0    0    -1  
$EndComp
Text GLabel 5850 1250 0    51   Output ~ 0
SERVO_SIG_5
$Comp
L +12V #PWR089
U 1 1 5B51BDC7
P 5450 8250
F 0 "#PWR089" H 5450 8100 50  0001 C CNN
F 1 "+12V" H 5450 8390 50  0000 C CNN
F 2 "" H 5450 8250 50  0000 C CNN
F 3 "" H 5450 8250 50  0000 C CNN
	1    5450 8250
	1    0    0    -1  
$EndComp
$Comp
L +12V #PWR090
U 1 1 5B521408
P 8800 12700
F 0 "#PWR090" H 8800 12550 50  0001 C CNN
F 1 "+12V" H 8800 12840 50  0000 C CNN
F 2 "" H 8800 12700 50  0000 C CNN
F 3 "" H 8800 12700 50  0000 C CNN
	1    8800 12700
	1    0    0    -1  
$EndComp
$Comp
L +12V #PWR091
U 1 1 5B524047
P 9600 12700
F 0 "#PWR091" H 9600 12550 50  0001 C CNN
F 1 "+12V" H 9600 12840 50  0000 C CNN
F 2 "" H 9600 12700 50  0000 C CNN
F 3 "" H 9600 12700 50  0000 C CNN
	1    9600 12700
	1    0    0    -1  
$EndComp
$Comp
L +12V #PWR092
U 1 1 5B526951
P 3650 12700
F 0 "#PWR092" H 3650 12550 50  0001 C CNN
F 1 "+12V" H 3650 12840 50  0000 C CNN
F 2 "" H 3650 12700 50  0000 C CNN
F 3 "" H 3650 12700 50  0000 C CNN
	1    3650 12700
	1    0    0    -1  
$EndComp
$Comp
L +12V #PWR093
U 1 1 5B5282B2
P 4450 12700
F 0 "#PWR093" H 4450 12550 50  0001 C CNN
F 1 "+12V" H 4450 12840 50  0000 C CNN
F 2 "" H 4450 12700 50  0000 C CNN
F 3 "" H 4450 12700 50  0000 C CNN
	1    4450 12700
	1    0    0    -1  
$EndComp
$Comp
L +12V #PWR094
U 1 1 5B529FDB
P 13950 12700
F 0 "#PWR094" H 13950 12550 50  0001 C CNN
F 1 "+12V" H 13950 12840 50  0000 C CNN
F 2 "" H 13950 12700 50  0000 C CNN
F 3 "" H 13950 12700 50  0000 C CNN
	1    13950 12700
	1    0    0    -1  
$EndComp
$Comp
L +12V #PWR095
U 1 1 5B52BEA0
P 14750 12700
F 0 "#PWR095" H 14750 12550 50  0001 C CNN
F 1 "+12V" H 14750 12840 50  0000 C CNN
F 2 "" H 14750 12700 50  0000 C CNN
F 3 "" H 14750 12700 50  0000 C CNN
	1    14750 12700
	1    0    0    -1  
$EndComp
$Comp
L Q_NMOS_GDS Q14
U 1 1 5B54E8BD
P 5400 14950
F 0 "Q14" H 5700 15000 50  0000 R CNN
F 1 "Q_NMOS_GDS" H 6050 14900 50  0000 R CNN
F 2 "MyKicadFP:DPAK(L)-(1)" H 5600 15050 50  0001 C CNN
F 3 "" H 5400 14950 50  0000 C CNN
	1    5400 14950
	1    0    0    -1  
$EndComp
$Comp
L +6V #PWR096
U 1 1 5B55BCEE
P 5500 14450
F 0 "#PWR096" H 5500 14300 50  0001 C CNN
F 1 "+6V" H 5500 14590 50  0000 C CNN
F 2 "" H 5500 14450 50  0000 C CNN
F 3 "" H 5500 14450 50  0000 C CNN
	1    5500 14450
	1    0    0    -1  
$EndComp
$Comp
L CONN_01X02 P3
U 1 1 5B55FA73
P 5800 14600
F 0 "P3" H 5800 14750 50  0000 C CNN
F 1 "MOTOR" V 5900 14600 50  0000 C CNN
F 2 "Connectors_JST:JST_XH_B02B-XH-A_02x2.50mm_Straight" H 5800 14600 50  0001 C CNN
F 3 "" H 5800 14600 50  0000 C CNN
	1    5800 14600
	1    0    0    -1  
$EndComp
$Comp
L R R43
U 1 1 5B565A14
P 5100 15200
F 0 "R43" V 5180 15200 50  0000 C CNN
F 1 "470k" V 5100 15200 50  0000 C CNN
F 2 "Resistors_SMD:R_0603_HandSoldering" V 5030 15200 50  0001 C CNN
F 3 "" H 5100 15200 50  0000 C CNN
	1    5100 15200
	1    0    0    -1  
$EndComp
$Comp
L R R42
U 1 1 5B568259
P 4850 14950
F 0 "R42" V 4930 14950 50  0000 C CNN
F 1 "470" V 4850 14950 50  0000 C CNN
F 2 "Resistors_SMD:R_0603_HandSoldering" V 4780 14950 50  0001 C CNN
F 3 "" H 4850 14950 50  0000 C CNN
	1    4850 14950
	0    -1   -1   0   
$EndComp
$Comp
L GND #PWR097
U 1 1 5B56CA0E
P 5500 15450
F 0 "#PWR097" H 5500 15200 50  0001 C CNN
F 1 "GND" H 5500 15300 50  0000 C CNN
F 2 "" H 5500 15450 50  0000 C CNN
F 3 "" H 5500 15450 50  0000 C CNN
	1    5500 15450
	1    0    0    -1  
$EndComp
$Comp
L Q_NMOS_GDS Q15
U 1 1 5B5797D6
P 10550 14950
F 0 "Q15" H 10850 15000 50  0000 R CNN
F 1 "Q_NMOS_GDS" H 11200 14900 50  0000 R CNN
F 2 "MyKicadFP:DPAK(L)-(1)" H 10750 15050 50  0001 C CNN
F 3 "" H 10550 14950 50  0000 C CNN
	1    10550 14950
	1    0    0    -1  
$EndComp
$Comp
L +6V #PWR098
U 1 1 5B5797DC
P 10650 14450
F 0 "#PWR098" H 10650 14300 50  0001 C CNN
F 1 "+6V" H 10650 14590 50  0000 C CNN
F 2 "" H 10650 14450 50  0000 C CNN
F 3 "" H 10650 14450 50  0000 C CNN
	1    10650 14450
	1    0    0    -1  
$EndComp
$Comp
L CONN_01X02 P4
U 1 1 5B5797E2
P 10950 14600
F 0 "P4" H 10950 14750 50  0000 C CNN
F 1 "MOTOR" V 11050 14600 50  0000 C CNN
F 2 "Connectors_JST:JST_XH_B02B-XH-A_02x2.50mm_Straight" H 10950 14600 50  0001 C CNN
F 3 "" H 10950 14600 50  0000 C CNN
	1    10950 14600
	1    0    0    -1  
$EndComp
$Comp
L R R45
U 1 1 5B5797EC
P 10250 15200
F 0 "R45" V 10330 15200 50  0000 C CNN
F 1 "470k" V 10250 15200 50  0000 C CNN
F 2 "Resistors_SMD:R_0603_HandSoldering" V 10180 15200 50  0001 C CNN
F 3 "" H 10250 15200 50  0000 C CNN
	1    10250 15200
	1    0    0    -1  
$EndComp
$Comp
L R R44
U 1 1 5B5797F2
P 10000 14950
F 0 "R44" V 10080 14950 50  0000 C CNN
F 1 "470" V 10000 14950 50  0000 C CNN
F 2 "Resistors_SMD:R_0603_HandSoldering" V 9930 14950 50  0001 C CNN
F 3 "" H 10000 14950 50  0000 C CNN
	1    10000 14950
	0    -1   -1   0   
$EndComp
$Comp
L GND #PWR099
U 1 1 5B5797FC
P 10650 15450
F 0 "#PWR099" H 10650 15200 50  0001 C CNN
F 1 "GND" H 10650 15300 50  0000 C CNN
F 2 "" H 10650 15450 50  0000 C CNN
F 3 "" H 10650 15450 50  0000 C CNN
	1    10650 15450
	1    0    0    -1  
$EndComp
Wire Wire Line
	20400 7800 21800 7800
Wire Wire Line
	20600 6950 20600 9600
Wire Wire Line
	20600 8400 21800 8400
Connection ~ 20600 7800
Wire Wire Line
	20600 9000 21800 9000
Connection ~ 20600 8400
Wire Wire Line
	20600 9600 21800 9600
Connection ~ 20600 9000
Wire Wire Line
	20500 7900 20500 10100
Wire Wire Line
	21800 9100 20500 9100
Wire Wire Line
	21800 8500 20500 8500
Connection ~ 20500 9100
Wire Wire Line
	21800 7900 20500 7900
Connection ~ 20500 8500
Wire Wire Line
	19900 8200 20400 8200
Wire Wire Line
	20400 8200 20400 8600
Wire Wire Line
	20400 8600 21800 8600
Wire Wire Line
	19900 8300 20300 8300
Wire Wire Line
	20300 8300 20300 8700
Wire Wire Line
	20300 8700 21800 8700
Wire Wire Line
	19900 8400 20200 8400
Wire Wire Line
	20200 8400 20200 9200
Wire Wire Line
	20200 9200 21800 9200
Wire Wire Line
	19900 8500 20100 8500
Wire Wire Line
	20100 8500 20100 9300
Wire Wire Line
	20100 9300 21800 9300
Wire Wire Line
	18800 8800 18700 8800
Wire Wire Line
	18700 8800 18700 8900
Wire Wire Line
	19900 8800 20000 8800
Wire Wire Line
	20000 8800 20000 8900
Wire Wire Line
	18700 7900 18800 7900
Wire Wire Line
	18700 7200 18700 7900
Wire Wire Line
	18500 9800 21800 9800
Wire Wire Line
	18400 9900 21800 9900
Wire Wire Line
	19900 8000 21800 8000
Wire Wire Line
	19900 8100 21800 8100
Wire Wire Line
	19450 9300 19450 9400
Connection ~ 19350 9300
Wire Wire Line
	19450 9800 19450 9700
Connection ~ 19450 9800
Wire Wire Line
	19250 9900 19250 9700
Connection ~ 19250 9900
Wire Wire Line
	18500 9800 18500 8600
Wire Wire Line
	18500 8600 18300 8600
Wire Wire Line
	18300 8700 18400 8700
Wire Wire Line
	18400 8700 18400 9900
Wire Wire Line
	18300 8000 18800 8000
Wire Wire Line
	18800 8100 18300 8100
Wire Wire Line
	18300 8200 18800 8200
Wire Wire Line
	18800 8300 18300 8300
Wire Wire Line
	18300 8400 18800 8400
Wire Wire Line
	18800 8500 18300 8500
Wire Wire Line
	21800 9700 20500 9700
Connection ~ 20500 9700
Wire Wire Line
	19250 9300 19450 9300
Wire Wire Line
	19350 9300 19350 9200
Wire Wire Line
	19250 9400 19250 9300
Wire Wire Line
	21600 7150 21600 7250
Wire Wire Line
	21450 7150 21450 7250
Connection ~ 21450 7150
Wire Wire Line
	21300 7150 21300 7250
Connection ~ 21300 7150
Wire Wire Line
	21150 7150 21150 7250
Connection ~ 21150 7150
Wire Wire Line
	21000 7150 21000 7250
Connection ~ 21000 7150
Wire Wire Line
	20850 7250 20850 7150
Connection ~ 20850 7150
Wire Wire Line
	21600 7550 21600 8000
Connection ~ 21600 8000
Wire Wire Line
	21450 7550 21450 8100
Connection ~ 21450 8100
Wire Wire Line
	21300 7550 21300 8600
Connection ~ 21300 8600
Wire Wire Line
	21150 7550 21150 8700
Connection ~ 21150 8700
Wire Wire Line
	21000 7550 21000 9200
Connection ~ 21000 9200
Wire Wire Line
	20850 7550 20850 9300
Connection ~ 20850 9300
Wire Notes Line
	19450 6550 22550 6550
Wire Notes Line
	22550 6550 22550 10550
Wire Notes Line
	22550 10550 17500 10550
Wire Notes Line
	17500 10550 17500 6550
Wire Notes Line
	17500 6550 18100 6550
Wire Wire Line
	10100 4450 10200 4450
Wire Wire Line
	10100 4250 10100 4550
Wire Wire Line
	10100 4350 10200 4350
Connection ~ 10100 4450
Wire Wire Line
	10200 4250 10100 4250
Connection ~ 10100 4350
Wire Wire Line
	10200 3950 9600 3950
Wire Wire Line
	15400 3850 15500 3850
Wire Wire Line
	15400 2650 15400 5550
Wire Wire Line
	15400 5450 15500 5450
Wire Wire Line
	15500 2650 15400 2650
Connection ~ 15400 3850
Wire Wire Line
	15500 3450 15400 3450
Connection ~ 15400 3450
Wire Wire Line
	15500 3050 15400 3050
Connection ~ 15400 3050
Wire Wire Line
	15500 4250 15400 4250
Connection ~ 15400 5450
Wire Wire Line
	15500 5050 15400 5050
Connection ~ 15400 5050
Wire Wire Line
	15500 4650 15400 4650
Connection ~ 15400 4650
Connection ~ 15400 4250
Wire Wire Line
	9800 4150 10200 4150
Wire Wire Line
	9900 4050 10200 4050
Wire Wire Line
	10200 3850 10000 3850
Wire Wire Line
	10100 3750 10200 3750
Wire Wire Line
	12100 4350 15300 4350
Wire Wire Line
	15500 5350 15200 5350
Wire Wire Line
	15200 5350 15200 4950
Wire Wire Line
	15200 4950 11800 4950
Wire Wire Line
	9800 2550 9800 4150
Wire Wire Line
	15500 2950 15300 2950
Wire Wire Line
	15300 2950 15300 2700
Wire Wire Line
	15200 3350 15500 3350
Wire Wire Line
	15500 3750 15100 3750
Wire Wire Line
	15200 2850 15200 3350
Wire Wire Line
	15100 3750 15100 3000
Wire Wire Line
	9800 2550 15500 2550
Wire Wire Line
	15300 2700 9900 2700
Wire Wire Line
	10000 2850 15200 2850
Wire Wire Line
	15100 3000 10100 3000
Wire Wire Line
	14800 2500 14800 2550
Connection ~ 14800 2550
Wire Wire Line
	14650 2700 14650 2500
Connection ~ 14650 2700
Wire Wire Line
	14500 2500 14500 2850
Connection ~ 14500 2850
Wire Wire Line
	14350 3000 14350 2500
Connection ~ 14350 3000
Wire Wire Line
	14200 4350 14200 2500
Connection ~ 14200 4350
Wire Wire Line
	14050 4550 14050 2500
Connection ~ 14050 4550
Wire Wire Line
	13900 4750 13900 2500
Connection ~ 13900 4750
Wire Wire Line
	13750 4950 13750 2500
Connection ~ 13750 4950
Wire Wire Line
	13750 2150 14800 2150
Wire Wire Line
	14800 2150 14800 2200
Wire Wire Line
	14650 2200 14650 2150
Connection ~ 14650 2150
Wire Wire Line
	14500 2200 14500 2150
Connection ~ 14500 2150
Wire Wire Line
	14350 2200 14350 2150
Connection ~ 14350 2150
Wire Wire Line
	14200 2200 14200 2150
Connection ~ 14200 2150
Wire Wire Line
	14050 2200 14050 2150
Connection ~ 14050 2150
Wire Wire Line
	13900 2200 13900 2150
Connection ~ 13900 2150
Wire Wire Line
	13750 2100 13750 2200
Connection ~ 13750 2150
Wire Wire Line
	8000 10500 7900 10500
Wire Wire Line
	7900 10500 7900 11000
Wire Wire Line
	8900 10500 9000 10500
Wire Wire Line
	9000 10500 9000 11000
Wire Wire Line
	8900 8500 9000 8500
Wire Wire Line
	9000 8500 9000 9000
Wire Wire Line
	10550 9000 10550 8500
Wire Wire Line
	10550 8500 10650 8500
Wire Wire Line
	11650 9000 11650 8500
Wire Wire Line
	11650 8500 11550 8500
Wire Wire Line
	10550 11000 10550 10500
Wire Wire Line
	10550 10500 10650 10500
Wire Wire Line
	11650 11000 11650 10500
Wire Wire Line
	11650 10500 11550 10500
Wire Wire Line
	7700 8200 8000 8200
Wire Wire Line
	8000 8500 7900 8500
Wire Wire Line
	7900 8500 7900 9000
Wire Wire Line
	8000 8650 7700 8650
Wire Wire Line
	7700 8350 8000 8350
Wire Wire Line
	9200 8200 8900 8200
Wire Wire Line
	9200 8350 8900 8350
Wire Wire Line
	9200 8650 8900 8650
Wire Wire Line
	10350 8200 10650 8200
Wire Wire Line
	10350 8350 10650 8350
Wire Wire Line
	10350 8650 10650 8650
Wire Wire Line
	11550 8200 11850 8200
Wire Wire Line
	11850 8350 11550 8350
Wire Wire Line
	11850 8650 11550 8650
Wire Wire Line
	7700 10200 8000 10200
Wire Wire Line
	8000 10350 7700 10350
Wire Wire Line
	7700 10650 8000 10650
Wire Wire Line
	8900 10200 9200 10200
Wire Wire Line
	8900 10350 9200 10350
Wire Wire Line
	9200 10650 8900 10650
Wire Wire Line
	10650 10200 10350 10200
Wire Wire Line
	10350 10650 10650 10650
Wire Wire Line
	10650 10350 10350 10350
Wire Wire Line
	11550 10200 11850 10200
Wire Wire Line
	11850 10350 11550 10350
Wire Wire Line
	11850 10650 11550 10650
Wire Wire Line
	11300 4450 11100 4450
Wire Wire Line
	11100 4350 11300 4350
Wire Wire Line
	11100 4250 11300 4250
Wire Wire Line
	11200 3750 11100 3750
Wire Wire Line
	11200 3350 11200 3750
Wire Wire Line
	9900 2700 9900 4050
Wire Wire Line
	10000 3850 10000 2850
Wire Wire Line
	10100 3000 10100 3750
Wire Wire Line
	15500 4150 15300 4150
Wire Wire Line
	15300 4150 15300 4350
Wire Wire Line
	12000 4550 15500 4550
Wire Wire Line
	15500 4950 15300 4950
Wire Wire Line
	15300 4950 15300 4750
Wire Wire Line
	15300 4750 11900 4750
Wire Wire Line
	12100 4350 12100 3850
Wire Wire Line
	12100 3850 11100 3850
Wire Wire Line
	11100 3950 12000 3950
Wire Wire Line
	12000 3950 12000 4550
Wire Wire Line
	11900 4750 11900 4050
Wire Wire Line
	11900 4050 11100 4050
Wire Wire Line
	11100 4150 11800 4150
Wire Wire Line
	11800 4150 11800 4950
Wire Notes Line
	12000 1500 16250 1500
Wire Notes Line
	16250 1500 16250 6100
Wire Notes Line
	16250 6100 8800 6100
Wire Notes Line
	8800 6100 8800 1500
Wire Notes Line
	8800 1500 10000 1500
Wire Wire Line
	2500 8350 3250 8350
Wire Wire Line
	2500 8450 2600 8450
Wire Wire Line
	2600 8450 2600 9150
Wire Wire Line
	2250 9050 3750 9050
Wire Wire Line
	3450 8650 3450 9050
Wire Wire Line
	2900 8450 2900 8350
Connection ~ 2900 8350
Wire Wire Line
	2900 8950 2900 9050
Connection ~ 2900 9050
Wire Wire Line
	3650 8350 4550 8350
Connection ~ 2600 9050
Wire Wire Line
	3750 8250 3750 8550
Wire Wire Line
	3450 8850 3150 8850
Wire Wire Line
	3150 8850 3150 8750
Connection ~ 3450 8850
Wire Wire Line
	3150 8450 3150 8350
Connection ~ 3150 8350
Wire Wire Line
	8400 9200 8300 9200
Wire Wire Line
	8300 9200 8300 9150
Wire Wire Line
	8400 9300 8300 9300
Wire Wire Line
	8300 9300 8300 9350
Wire Wire Line
	11050 9200 10950 9200
Wire Wire Line
	10950 9200 10950 9150
Wire Wire Line
	10950 9350 10950 9300
Wire Wire Line
	10950 9300 11050 9300
Wire Wire Line
	8400 11200 8300 11200
Wire Wire Line
	8300 11200 8300 11150
Wire Wire Line
	8300 11350 8300 11300
Wire Wire Line
	8300 11300 8400 11300
Wire Wire Line
	11050 11300 10950 11300
Wire Wire Line
	10950 11300 10950 11350
Wire Wire Line
	11050 11200 10950 11200
Wire Wire Line
	10950 11200 10950 11150
Wire Wire Line
	5500 12900 5600 12900
Wire Wire Line
	5600 13000 5500 13000
Wire Wire Line
	5500 13000 5500 13200
Wire Wire Line
	2500 10200 3250 10200
Wire Wire Line
	2500 10300 2600 10300
Wire Wire Line
	2600 10900 3750 10900
Wire Wire Line
	3450 10500 3450 10900
Wire Wire Line
	2900 10300 2900 10200
Connection ~ 2900 10200
Wire Wire Line
	2900 10800 2900 10900
Connection ~ 2900 10900
Wire Wire Line
	3650 10200 4100 10200
Connection ~ 2600 10900
Wire Wire Line
	3750 10100 3750 10400
Wire Wire Line
	3450 10700 3150 10700
Wire Wire Line
	3150 10700 3150 10600
Connection ~ 3450 10700
Wire Wire Line
	3150 10300 3150 10200
Connection ~ 3150 10200
Wire Wire Line
	2750 3850 3500 3850
Wire Wire Line
	2750 3950 2850 3950
Wire Wire Line
	2850 3950 2850 4650
Wire Wire Line
	3700 4550 3700 4150
Wire Wire Line
	3150 3950 3150 3850
Connection ~ 3150 3850
Wire Wire Line
	3150 4550 3150 4450
Connection ~ 3150 4550
Connection ~ 2850 4550
Wire Wire Line
	3400 4450 3800 4450
Wire Wire Line
	3400 4450 3400 4300
Connection ~ 3700 4450
Wire Wire Line
	3400 4000 3400 3850
Connection ~ 3400 3850
Wire Wire Line
	5100 13400 5200 13400
Wire Wire Line
	5150 13450 5150 13400
Connection ~ 5150 13400
Wire Wire Line
	5150 13750 5150 13800
Wire Wire Line
	5150 13800 5500 13800
Connection ~ 5500 13800
Wire Wire Line
	13850 8650 14050 8650
Wire Wire Line
	13950 8550 13950 8750
Wire Wire Line
	13950 8750 14050 8750
Wire Wire Line
	14050 8850 13950 8850
Wire Wire Line
	13950 8850 13950 8950
Wire Wire Line
	13850 9600 14050 9600
Wire Wire Line
	13950 9500 13950 9700
Wire Wire Line
	13950 9700 14050 9700
Wire Wire Line
	14050 9800 13950 9800
Wire Wire Line
	13950 9800 13950 9900
Wire Wire Line
	13850 10550 14050 10550
Wire Wire Line
	13950 10450 13950 10650
Wire Wire Line
	13950 10650 14050 10650
Wire Wire Line
	14050 10750 13950 10750
Wire Wire Line
	13950 10750 13950 10850
Wire Notes Line
	7400 7250 16850 7250
Wire Notes Line
	16850 7250 16850 15700
Wire Notes Line
	16850 15700 950  15700
Wire Notes Line
	950  15700 950  7250
Wire Notes Line
	950  7250 2000 7250
Connection ~ 3750 8350
Wire Wire Line
	3750 9050 3750 8850
Connection ~ 3450 9050
Connection ~ 3750 10200
Wire Wire Line
	3750 10900 3750 10700
Connection ~ 3450 10900
Wire Wire Line
	5500 13600 5500 14000
Wire Wire Line
	19200 13000 19650 13000
Wire Wire Line
	19200 12700 19200 13000
Wire Wire Line
	19350 13100 19650 13100
Wire Wire Line
	19350 13600 19650 13600
Wire Wire Line
	19350 12200 19650 12200
Wire Wire Line
	19350 12300 19650 12300
Wire Wire Line
	19450 12200 19450 11900
Wire Wire Line
	19450 11900 20600 11900
Wire Wire Line
	20600 11900 20600 12200
Wire Wire Line
	20600 12200 20700 12200
Connection ~ 19450 12200
Wire Wire Line
	19550 12300 19550 12000
Wire Wire Line
	19550 12000 20500 12000
Wire Wire Line
	20500 12000 20500 12300
Wire Wire Line
	20500 12300 20700 12300
Connection ~ 19550 12300
Wire Wire Line
	20200 12800 20200 13000
Wire Wire Line
	20200 13000 20700 13000
Wire Wire Line
	19650 12900 19550 12900
Wire Wire Line
	19550 12900 19550 12650
Wire Wire Line
	19550 12650 19400 12650
Wire Wire Line
	19400 12650 19400 12750
Wire Wire Line
	20700 12900 20600 12900
Wire Wire Line
	20600 12900 20600 12650
Wire Wire Line
	20600 12650 20400 12650
Wire Wire Line
	20400 12650 20400 12750
Wire Wire Line
	19550 13600 19550 13400
Wire Wire Line
	19550 13400 20600 13400
Wire Wire Line
	20600 13400 20600 13600
Wire Wire Line
	20600 13600 20700 13600
Connection ~ 19550 13600
Wire Wire Line
	20600 13100 20700 13100
Wire Notes Line
	21650 11450 21750 11450
Wire Notes Line
	21750 11450 21750 14200
Wire Notes Line
	21750 14200 18400 14200
Wire Notes Line
	18400 14200 18400 11500
Wire Notes Line
	18400 11500 18500 11500
Wire Wire Line
	3900 3850 5000 3850
Wire Wire Line
	4900 3850 4900 3950
Connection ~ 4900 3850
Wire Wire Line
	5400 3850 6200 3850
Wire Wire Line
	5500 3750 5500 3950
Wire Wire Line
	2550 4550 3700 4550
Wire Wire Line
	3250 2850 3450 2850
Wire Wire Line
	3250 2750 3450 2750
Wire Wire Line
	1850 1050 1950 1050
Wire Wire Line
	3350 1050 3250 1050
Wire Wire Line
	1850 1150 1950 1150
Wire Wire Line
	5400 2750 5950 2750
Wire Wire Line
	5950 2850 5400 2850
Wire Wire Line
	5500 3050 5500 2950
Wire Wire Line
	5500 2950 5400 2950
Wire Wire Line
	7350 1650 7250 1650
Wire Wire Line
	5850 2050 5950 2050
Wire Wire Line
	7350 1150 7250 1150
Wire Wire Line
	7350 1050 7250 1050
Wire Wire Line
	5850 1050 5950 1050
Wire Wire Line
	3350 2550 3250 2550
Wire Wire Line
	1850 1850 1950 1850
Wire Wire Line
	3350 1150 3250 1150
Wire Wire Line
	5200 4350 5200 4150
Wire Wire Line
	4800 4350 5200 4350
Wire Wire Line
	4900 4250 4900 4350
Connection ~ 4900 4350
Wire Wire Line
	3250 1750 3450 1750
Wire Wire Line
	3450 1750 3450 1650
Wire Wire Line
	3250 1850 3700 1850
Wire Wire Line
	3700 1850 3700 1650
Wire Wire Line
	3250 2150 3950 2150
Wire Wire Line
	3950 2150 3950 1650
Wire Wire Line
	4200 2050 3250 2050
Wire Wire Line
	3250 1950 4200 1950
Connection ~ 4200 2050
Wire Wire Line
	1950 1950 1250 1950
Wire Wire Line
	1250 1950 1250 2050
Wire Wire Line
	7450 2050 7250 2050
Wire Wire Line
	5750 2250 5950 2250
Wire Wire Line
	7250 2450 7450 2450
Wire Wire Line
	1850 2750 1950 2750
Wire Wire Line
	1850 2850 1950 2850
Wire Wire Line
	1850 1650 1950 1650
Wire Wire Line
	1850 1750 1950 1750
Wire Wire Line
	2650 5800 2650 6000
Wire Wire Line
	2650 6000 2750 6000
Wire Wire Line
	2550 5900 2750 5900
Wire Wire Line
	2750 6100 2650 6100
Wire Wire Line
	2650 6100 2650 6200
Wire Wire Line
	3700 5800 3700 6000
Wire Wire Line
	3700 6000 3800 6000
Wire Wire Line
	3600 5900 3800 5900
Wire Wire Line
	3800 6100 3700 6100
Wire Wire Line
	3700 6100 3700 6200
Wire Wire Line
	4850 6100 4750 6100
Wire Wire Line
	4750 6100 4750 6200
Wire Wire Line
	4750 5800 4750 6000
Wire Wire Line
	4750 6000 4850 6000
Wire Wire Line
	4650 5900 4850 5900
Wire Notes Line
	2650 5250 8600 5250
Wire Notes Line
	8600 5250 8600 6650
Wire Notes Line
	8600 6650 1600 6650
Wire Notes Line
	1600 6650 1600 5250
Wire Notes Line
	1600 5250 2250 5250
Wire Wire Line
	4100 10100 4100 10300
Wire Wire Line
	2250 9150 2250 9050
Wire Wire Line
	6200 3750 6200 3950
Connection ~ 5500 3850
Wire Wire Line
	5500 4250 5500 4450
Wire Wire Line
	2000 6200 2000 6150
Wire Wire Line
	2000 5800 2000 5850
Wire Wire Line
	11600 3450 11700 3450
Wire Wire Line
	11700 3450 11700 3550
Wire Wire Line
	11300 3450 11200 3450
Connection ~ 11200 3450
Wire Wire Line
	20600 7150 21600 7150
Wire Wire Line
	19900 7900 20400 7900
Wire Wire Line
	20400 7900 20400 7800
Connection ~ 19200 12750
Connection ~ 6200 3850
Wire Wire Line
	6200 4350 6200 4450
Wire Wire Line
	6200 4850 6200 4750
Wire Wire Line
	4100 8950 4100 8850
Connection ~ 4100 8350
Wire Wire Line
	4100 9350 4100 9250
Wire Wire Line
	5850 3950 5850 3850
Connection ~ 5850 3850
Wire Wire Line
	5500 4350 5850 4350
Wire Wire Line
	5850 4350 5850 4250
Connection ~ 5500 4350
Wire Wire Line
	2300 13400 2500 13400
Wire Wire Line
	2900 13400 2800 13400
Wire Wire Line
	2800 13700 2800 13600
Wire Wire Line
	2800 13600 2900 13600
Wire Wire Line
	3500 13400 4050 13400
Wire Wire Line
	4050 13400 4050 13100
Wire Wire Line
	3950 13100 4150 13100
Connection ~ 4050 13100
Wire Wire Line
	3650 13300 3650 13400
Connection ~ 3650 13400
Wire Wire Line
	4450 13300 4450 13500
Wire Wire Line
	4450 8500 4450 8350
Connection ~ 4450 8350
Wire Wire Line
	5350 8350 5450 8350
Wire Wire Line
	5450 8250 5450 8500
Connection ~ 5450 8350
Wire Wire Line
	4450 8800 4450 8900
Wire Wire Line
	4450 8900 5450 8900
Wire Wire Line
	5450 8900 5450 8800
Wire Wire Line
	4950 8650 4950 9000
Connection ~ 4950 8900
Wire Wire Line
	4450 12900 4450 12700
Wire Wire Line
	3650 12900 3650 12700
Wire Wire Line
	4450 13800 4450 13900
Connection ~ 4450 13400
Connection ~ 2400 13400
Wire Wire Line
	4450 13400 4800 13400
Wire Wire Line
	2600 10300 2600 11000
Connection ~ 4100 10200
Wire Wire Line
	4100 11200 4100 11100
Wire Wire Line
	4100 10800 4100 10700
Wire Wire Line
	10650 12900 10750 12900
Wire Wire Line
	10750 13000 10650 13000
Wire Wire Line
	10650 13000 10650 13200
Wire Wire Line
	10250 13400 10350 13400
Wire Wire Line
	10300 13450 10300 13400
Connection ~ 10300 13400
Wire Wire Line
	10300 13750 10300 13800
Wire Wire Line
	10300 13800 10650 13800
Connection ~ 10650 13800
Wire Wire Line
	10650 13600 10650 14000
Wire Wire Line
	7450 13400 7650 13400
Wire Wire Line
	8050 13400 7950 13400
Wire Wire Line
	7950 13700 7950 13600
Wire Wire Line
	7950 13600 8050 13600
Wire Wire Line
	8650 13400 9200 13400
Wire Wire Line
	9200 13400 9200 13100
Wire Wire Line
	9100 13100 9300 13100
Connection ~ 9200 13100
Wire Wire Line
	8800 13300 8800 13400
Connection ~ 8800 13400
Wire Wire Line
	9600 13300 9600 13500
Wire Wire Line
	9600 12900 9600 12700
Wire Wire Line
	8800 12900 8800 12700
Wire Wire Line
	9600 13800 9600 13900
Connection ~ 9600 13400
Connection ~ 7550 13400
Wire Wire Line
	9600 13400 9950 13400
Wire Wire Line
	15800 12900 15900 12900
Wire Wire Line
	15900 13000 15800 13000
Wire Wire Line
	15800 13000 15800 13200
Wire Wire Line
	15400 13400 15500 13400
Wire Wire Line
	15450 13450 15450 13400
Connection ~ 15450 13400
Wire Wire Line
	15450 13750 15450 13800
Wire Wire Line
	15450 13800 15800 13800
Connection ~ 15800 13800
Wire Wire Line
	15650 15100 15550 15100
Wire Wire Line
	15550 15100 15550 15200
Wire Wire Line
	15650 15000 15550 15000
Wire Wire Line
	15550 15000 15550 14800
Wire Wire Line
	15800 13600 15800 14000
Wire Wire Line
	12600 13400 12800 13400
Wire Wire Line
	13200 13400 13100 13400
Wire Wire Line
	13100 13700 13100 13600
Wire Wire Line
	13100 13600 13200 13600
Wire Wire Line
	13800 13400 14350 13400
Wire Wire Line
	14350 13400 14350 13100
Wire Wire Line
	14250 13100 14450 13100
Connection ~ 14350 13100
Wire Wire Line
	13950 13300 13950 13400
Connection ~ 13950 13400
Wire Wire Line
	14750 13300 14750 13500
Wire Wire Line
	14750 12900 14750 12700
Wire Wire Line
	13950 12900 13950 12700
Wire Wire Line
	14750 13800 14750 13900
Connection ~ 14750 13400
Wire Wire Line
	12700 13400 12700 14900
Connection ~ 12700 13400
Wire Wire Line
	14750 13400 15100 13400
Wire Wire Line
	12700 14900 15650 14900
Wire Wire Line
	3600 13700 3600 13600
Wire Wire Line
	3600 13600 3500 13600
Wire Wire Line
	8750 13700 8750 13600
Wire Wire Line
	8750 13600 8650 13600
Wire Wire Line
	13900 13700 13900 13600
Wire Wire Line
	13900 13600 13800 13600
Wire Wire Line
	2550 4550 2550 4650
Wire Wire Line
	15500 9200 15700 9200
Wire Wire Line
	15600 9100 15600 9300
Wire Wire Line
	15600 9300 15700 9300
Wire Wire Line
	15700 9400 15600 9400
Wire Wire Line
	15600 9400 15600 9500
Wire Wire Line
	5850 1150 5950 1150
Wire Wire Line
	5850 1950 5950 1950
Wire Wire Line
	15500 10150 15700 10150
Wire Wire Line
	15600 10050 15600 10250
Wire Wire Line
	15600 10250 15700 10250
Wire Wire Line
	15700 10350 15600 10350
Wire Wire Line
	15600 10350 15600 10450
Wire Wire Line
	10650 12900 10650 12700
Wire Wire Line
	5500 12900 5500 12700
Wire Wire Line
	15800 12900 15800 12700
Wire Wire Line
	5600 14550 5500 14550
Wire Wire Line
	5500 14550 5500 14450
Wire Wire Line
	5600 14650 5500 14650
Wire Wire Line
	5500 14650 5500 14750
Wire Wire Line
	5000 14950 5200 14950
Wire Wire Line
	5100 15050 5100 14950
Connection ~ 5100 14950
Wire Wire Line
	4700 14950 2400 14950
Wire Wire Line
	5500 15150 5500 15450
Wire Wire Line
	5100 15350 5100 15400
Wire Wire Line
	5100 15400 5500 15400
Connection ~ 5500 15400
Wire Wire Line
	2400 14950 2400 13400
Wire Wire Line
	10750 14550 10650 14550
Wire Wire Line
	10650 14550 10650 14450
Wire Wire Line
	10750 14650 10650 14650
Wire Wire Line
	10650 14650 10650 14750
Wire Wire Line
	10150 14950 10350 14950
Wire Wire Line
	10250 15050 10250 14950
Connection ~ 10250 14950
Wire Wire Line
	9850 14950 7550 14950
Wire Wire Line
	10650 15150 10650 15450
Wire Wire Line
	10250 15350 10250 15400
Wire Wire Line
	10250 15400 10650 15400
Connection ~ 10650 15400
Wire Wire Line
	7550 14950 7550 13400
Wire Wire Line
	5850 1250 5950 1250
Wire Wire Line
	7250 1750 7450 1750
Wire Wire Line
	7450 2150 7250 2150
Wire Wire Line
	3450 2650 3250 2650
Wire Wire Line
	7450 1250 7250 1250
Wire Wire Line
	7350 2650 7250 2650
Wire Wire Line
	4100 8250 4100 8450
$Comp
L PWR_FLAG #FLG0100
U 1 1 5B3FCAE1
P 4100 8250
F 0 "#FLG0100" H 4100 8345 50  0001 C CNN
F 1 "PWR_FLAG" H 4100 8430 50  0000 C CNN
F 2 "" H 4100 8250 50  0000 C CNN
F 3 "" H 4100 8250 50  0000 C CNN
	1    4100 8250
	1    0    0    -1  
$EndComp
Text GLabel 3450 2850 2    51   BiDi ~ 0
IO_4
Text GLabel 3450 2750 2    51   BiDi ~ 0
IO_5
Text GLabel 1850 2750 0    51   BiDi ~ 0
IO_6
$Comp
L CONN_01X03 P9
U 1 1 5B4FD203
P 6100 6000
F 0 "P9" H 6100 6200 50  0000 C CNN
F 1 "IO" V 6200 6000 50  0000 C CNN
F 2 "Connectors_JST:JST_XH_B03B-XH-A_03x2.50mm_Straight" H 6100 6000 50  0001 C CNN
F 3 "" H 6100 6000 50  0000 C CNN
	1    6100 6000
	1    0    0    -1  
$EndComp
$Comp
L +3.3V #PWR0101
U 1 1 5B4FD209
P 5800 5800
F 0 "#PWR0101" H 5800 5650 50  0001 C CNN
F 1 "+3.3V" H 5800 5940 50  0000 C CNN
F 2 "" H 5800 5800 50  0000 C CNN
F 3 "" H 5800 5800 50  0000 C CNN
	1    5800 5800
	1    0    0    -1  
$EndComp
$Comp
L GND #PWR0102
U 1 1 5B4FD20F
P 5800 6200
F 0 "#PWR0102" H 5800 5950 50  0001 C CNN
F 1 "GND" H 5800 6050 50  0000 C CNN
F 2 "" H 5800 6200 50  0000 C CNN
F 3 "" H 5800 6200 50  0000 C CNN
	1    5800 6200
	1    0    0    -1  
$EndComp
Text GLabel 5700 5900 0    51   BiDi ~ 0
IO_4
Wire Wire Line
	5900 6100 5800 6100
Wire Wire Line
	5800 6100 5800 6200
Wire Wire Line
	5800 5800 5800 6000
Wire Wire Line
	5800 6000 5900 6000
Wire Wire Line
	5700 5900 5900 5900
$Comp
L CONN_01X03 P10
U 1 1 5B4FD340
P 7150 6000
F 0 "P10" H 7150 6200 50  0000 C CNN
F 1 "IO" V 7250 6000 50  0000 C CNN
F 2 "Connectors_JST:JST_XH_B03B-XH-A_03x2.50mm_Straight" H 7150 6000 50  0001 C CNN
F 3 "" H 7150 6000 50  0000 C CNN
	1    7150 6000
	1    0    0    -1  
$EndComp
$Comp
L +3.3V #PWR0103
U 1 1 5B4FD346
P 6850 5800
F 0 "#PWR0103" H 6850 5650 50  0001 C CNN
F 1 "+3.3V" H 6850 5940 50  0000 C CNN
F 2 "" H 6850 5800 50  0000 C CNN
F 3 "" H 6850 5800 50  0000 C CNN
	1    6850 5800
	1    0    0    -1  
$EndComp
$Comp
L GND #PWR0104
U 1 1 5B4FD34C
P 6850 6200
F 0 "#PWR0104" H 6850 5950 50  0001 C CNN
F 1 "GND" H 6850 6050 50  0000 C CNN
F 2 "" H 6850 6200 50  0000 C CNN
F 3 "" H 6850 6200 50  0000 C CNN
	1    6850 6200
	1    0    0    -1  
$EndComp
Text GLabel 6750 5900 0    51   BiDi ~ 0
IO_5
Wire Wire Line
	6950 6100 6850 6100
Wire Wire Line
	6850 6100 6850 6200
Wire Wire Line
	6850 5800 6850 6000
Wire Wire Line
	6850 6000 6950 6000
Wire Wire Line
	6750 5900 6950 5900
$Comp
L CONN_01X03 P14
U 1 1 5B4FF375
P 8200 6000
F 0 "P14" H 8200 6200 50  0000 C CNN
F 1 "IO" V 8300 6000 50  0000 C CNN
F 2 "Connectors_JST:JST_XH_B03B-XH-A_03x2.50mm_Straight" H 8200 6000 50  0001 C CNN
F 3 "" H 8200 6000 50  0000 C CNN
	1    8200 6000
	1    0    0    -1  
$EndComp
$Comp
L +3.3V #PWR0105
U 1 1 5B4FF37B
P 7900 5800
F 0 "#PWR0105" H 7900 5650 50  0001 C CNN
F 1 "+3.3V" H 7900 5940 50  0000 C CNN
F 2 "" H 7900 5800 50  0000 C CNN
F 3 "" H 7900 5800 50  0000 C CNN
	1    7900 5800
	1    0    0    -1  
$EndComp
$Comp
L GND #PWR0106
U 1 1 5B4FF381
P 7900 6200
F 0 "#PWR0106" H 7900 5950 50  0001 C CNN
F 1 "GND" H 7900 6050 50  0000 C CNN
F 2 "" H 7900 6200 50  0000 C CNN
F 3 "" H 7900 6200 50  0000 C CNN
	1    7900 6200
	1    0    0    -1  
$EndComp
Text GLabel 7800 5900 0    51   BiDi ~ 0
IO_6
Wire Wire Line
	8000 6100 7900 6100
Wire Wire Line
	7900 6100 7900 6200
Wire Wire Line
	7900 5800 7900 6000
Wire Wire Line
	7900 6000 8000 6000
Wire Wire Line
	7800 5900 8000 5900
Connection ~ 20600 7150
Wire Wire Line
	5850 2550 5950 2550
Wire Wire Line
	5850 1550 5950 1550
Wire Wire Line
	5850 2350 5950 2350
Wire Wire Line
	5850 1850 5950 1850
Wire Wire Line
	5850 2450 5950 2450
Wire Wire Line
	1850 2050 1950 2050
Wire Wire Line
	5850 2650 5950 2650
Wire Wire Line
	5850 2150 5950 2150
Wire Wire Line
	5850 1650 5950 1650
Wire Wire Line
	5850 1750 5950 1750
Wire Wire Line
	7450 1550 7250 1550
Wire Wire Line
	3350 2350 3250 2350
Wire Wire Line
	3250 2450 3350 2450
Wire Wire Line
	18700 12750 18700 12800
Wire Wire Line
	19200 12750 18700 12750
$Comp
L GND #PWR0107
U 1 1 5B54F91C
P 18700 13150
F 0 "#PWR0107" H 18700 12900 50  0001 C CNN
F 1 "GND" H 18700 13000 50  0000 C CNN
F 2 "" H 18700 13150 50  0000 C CNN
F 3 "" H 18700 13150 50  0000 C CNN
	1    18700 13150
	1    0    0    -1  
$EndComp
Wire Wire Line
	18700 13150 18700 13100
$Comp
L C C9
U 1 1 5B54CBA9
P 18700 12950
F 0 "C9" H 18725 13050 50  0000 L CNN
F 1 "0.1u" H 18725 12850 50  0000 L CNN
F 2 "Resistors_SMD:R_0603_HandSoldering" H 18738 12800 50  0001 C CNN
F 3 "" H 18700 12950 50  0000 C CNN
	1    18700 12950
	1    0    0    -1  
$EndComp
Wire Wire Line
	7350 2250 7250 2250
Wire Wire Line
	7250 2350 7350 2350
NoConn ~ 7250 1950
NoConn ~ 3250 1350
Wire Wire Line
	4200 1950 4200 2150
NoConn ~ 5950 1450
$EndSCHEMATC
